{
  "name": "foundryvtt-reve-de-dragon",
  "title": "Rêve de Dragon",
  "description": "Rêve de Dragon RPG for FoundryVTT",
  "version": "1.0.6",
  "minimumCoreVersion": "0.7.5",
  "compatibleCoreVersion": "0.7.7",
  "templateVersion": 52,
  "author": "LeRatierBretonnien",
  "esmodules": [ "module/rdd-main.js", "module/hook-renderChatLog.js" ],
  "styles": ["styles/simple.css"],
  "packs": [
  	{
      "name": "competences",
      "label": "Compétences",
      "system": "foundryvtt-reve-de-dragon",
      "module": "foundryvtt-reve-de-dragon",
      "path": "./packs/competences.db",
      "entity": "Item",
      "tags" : [ "item", "compétences" ]
    },
  	{
      "name": "competences-creatures",
      "label": "Compétences de Créatures",
      "system": "foundryvtt-reve-de-dragon",
      "module": "foundryvtt-reve-de-dragon",
      "path": "./packs/competences-creatures.db",
      "entity": "Item",
      "tags" : [ "item", "compétences", "créatures" ]
    },
  	{
      "name": "competences-humanoides",
      "label": "Compétences Humanoïdes",
      "system": "foundryvtt-reve-de-dragon",
      "module": "foundryvtt-reve-de-dragon",
      "path": "./packs/competences-humanoides.db",
      "entity": "Item",
      "tags" : [ "item", "compétences", "humanoides" ]
    },
  	{
      "name": "competences-entites",
      "label": "Compétences des Entités",
      "system": "foundryvtt-reve-de-dragon",
      "module": "foundryvtt-reve-de-dragon",
      "path": "./packs/competences-entites.db",
      "entity": "Item",
      "tags" : [ "item", "compétences", "entités" ]
    },
  	{
      "name": "sorts",
      "label": "Sorts",
      "system": "foundryvtt-reve-de-dragon",
      "module": "foundryvtt-reve-de-dragon",
      "path": "./packs/sorts.db",
      "entity": "Item",
      "tags" : [ "item", "sorts" ]
    },
  	{
      "name": "equipement",
      "label": "Equipement",
      "system": "foundryvtt-reve-de-dragon",
      "module": "foundryvtt-reve-de-dragon",
      "path": "./packs/equipement.db",
      "entity": "Item",
      "tags" : [ "item", "équipement", "objet" ]
    },
  	{
      "name": "rappel-des-regles",
      "label": "Rappels des Règles",
      "system": "foundryvtt-reve-de-dragon",
      "module": "foundryvtt-reve-de-dragon",
      "path": "./packs/rappel-des-regles.db",
      "entity": "JournalEntry",
      "tags" : [ "journal", "règles" ]
    },
  	{
      "name": "queues-de-dragon",
      "label": "Queues de Dragon",
      "system": "foundryvtt-reve-de-dragon",
      "module": "foundryvtt-reve-de-dragon",
      "path": "./packs/queues-de-dragon.db",
      "entity": "Item",
      "tags" : [ "item", "queue" ]
    },
  	{
      "name": "ombres-de-thanatos",
      "label": "Ombres de Thanatos",
      "system": "foundryvtt-reve-de-dragon",
      "module": "foundryvtt-reve-de-dragon",
      "path": "./packs/ombres-de-thanatos.db",
      "entity": "Item",
      "tags" : [ "item", "ombre" ]
    },
  	{
      "name": "souffles-de-dragon",
      "label": "Souffles de Dragon",
      "system": "foundryvtt-reve-de-dragon",
      "module": "foundryvtt-reve-de-dragon",
      "path": "./packs/souffles-de-dragon.db",
      "entity": "Item",
      "tags" : [ "item", "souffle" ]
    },
  	{
      "name": "tarot-draconique",
      "label": "Tarot Draconique",
      "system": "foundryvtt-reve-de-dragon",
      "module": "foundryvtt-reve-de-dragon",
      "path": "./packs/tarot-draconique.db",
      "entity": "Item",
      "tags" : [ "item", "tarot" ]
    },
  	{
      "name": "tetes-de-dragon-pour-haut-revants",
      "label": "Têtes de Dragon (Hauts-Rêvants)",
      "system": "foundryvtt-reve-de-dragon",
      "module": "foundryvtt-reve-de-dragon",
      "path": "./packs/tetes-de-dragon-pour-haut-revants.db",
      "entity": "Item",
      "tags" : [ "item", "tête" ]
    },
  	{
      "name": "tetes-de-dragon-pour-tous-personnages",
      "label": "Têtes de Dragon (Tous Personnages)",
      "system": "foundryvtt-reve-de-dragon",
      "module": "foundryvtt-reve-de-dragon",
      "path": "./packs/tetes-de-dragon-pour-tous-personnages.db",
      "entity": "Item",
      "tags" : [ "item", "tête" ]
    },
    {
      "name": "tables-diverses",
      "label": "Tables Diverses",
      "system": "foundryvtt-reve-de-dragon",
      "module": "foundryvtt-reve-de-dragon",
      "path": "./packs/tables-diverses.db",
      "entity": "RollTable",
      "tags" : [ "table", "tables" ]
    },
    {
      "name": "animaux",
      "label": "Animaux",
      "system": "foundryvtt-reve-de-dragon",
      "module": "foundryvtt-reve-de-dragon",
      "path": "./packs/animaux.db",
      "entity": "Actor",
      "tags" : [ "animaux", "creature" ]
    },
    {
      "name": "entites",
      "label": "Entités de Cauchemar",
      "system": "foundryvtt-reve-de-dragon",
      "module": "foundryvtt-reve-de-dragon",
      "path": "./packs/entites-de-cauchemar.db",
      "entity": "Actor",
      "tags" : [ "entités", "entite", "cauchemar", "ecni", "eni" ]
    },
    {
      "name": "botanique",
      "label": "Botanique",
      "system": "foundryvtt-reve-de-dragon",
      "module": "foundryvtt-reve-de-dragon",
      "path": "./packs/botanique.db",
      "entity": "Item",
      "tags" : [ "plantes", "champignons", "herbes" ]
    }
  ],
  "languages": [],
  "gridDistance": 5,
  "gridUnits": "ft",
  "primaryTokenAttribute": "sante.vie",
  "secondaryTokenAttribute": "sante.endurance",
  "socket": true,
  "url": "https://gitlab.com/LeRatierBretonnien/foundryvtt-reve-de-dragon/",
  "manifest": "https://gitlab.com/LeRatierBretonnien/foundryvtt-reve-de-dragon/raw/master/system.json",
  "download": "https://gitlab.com/LeRatierBretonnien/foundryvtt-reve-de-dragon/-/archive/master/foundryvtt-reve-de-dragon-master.zip",
  "license": "LICENSE.txt"
}
