<?xml version="1.0" encoding="UTF-8" standalone="no"?>
<svg
   xmlns:dc="http://purl.org/dc/elements/1.1/"
   xmlns:cc="http://creativecommons.org/ns#"
   xmlns:rdf="http://www.w3.org/1999/02/22-rdf-syntax-ns#"
   xmlns:svg="http://www.w3.org/2000/svg"
   xmlns="http://www.w3.org/2000/svg"
   xmlns:sodipodi="http://sodipodi.sourceforge.net/DTD/sodipodi-0.dtd"
   xmlns:inkscape="http://www.inkscape.org/namespaces/inkscape"
   width="35.685276mm"
   height="26.831001mm"
   viewBox="0 0 202.29972 152.10509"
   version="1.1"
   id="svg3"
   sodipodi:docname="hd06.svg"
   inkscape:version="1.0.1 (3bc2e813f5, 2020-09-07)">
  <metadata
     id="metadata9">
    <rdf:RDF>
      <cc:Work
         rdf:about="">
        <dc:format>image/svg+xml</dc:format>
        <dc:type
           rdf:resource="http://purl.org/dc/dcmitype/StillImage" />
      </cc:Work>
    </rdf:RDF>
  </metadata>
  <defs
     id="defs7" />
  <sodipodi:namedview
     pagecolor="#ffffff"
     bordercolor="#666666"
     borderopacity="1"
     objecttolerance="10"
     gridtolerance="10"
     guidetolerance="10"
     inkscape:pageopacity="0"
     inkscape:pageshadow="2"
     inkscape:window-width="2044"
     inkscape:window-height="480"
     id="namedview5"
     showgrid="false"
     inkscape:zoom="1.6806796"
     inkscape:cx="371.26516"
     inkscape:cy="37.442828"
     inkscape:window-x="0"
     inkscape:window-y="0"
     inkscape:window-maximized="0"
     inkscape:current-layer="svg3"
     inkscape:document-rotation="0" />
  <path
     id="Sélection #3"
     fill="none"
     stroke="black"
     stroke-width="1.1616"
     d="M -1.3682281e-4,147.03661 C 3.8099112,139.38167 8.9557993,139.05642 15.100663,133.87568 c 1.939872,-1.63785 5.57568,-4.8671 5.57568,-7.62009 0,-2.48583 -2.474208,-3.69389 -4.437312,-4.47216 -5.064576,-2.02119 -14.9497918,-2.13735 -15.28665582,-9.59483 -0.104544,-2.31158 1.24291202,-4.68125 2.98531202,-6.12163 8.6539198,-7.108992 30.5268478,1.49846 41.3645758,0.92928 9.304416,-0.48787 21.280512,-11.801856 27.8784,-18.086112 4.0656,-3.868128 12.7776,-10.117536 11.894784,-16.215936 -0.778272,-5.413056 -9.188256,-13.346784 -12.858912,-17.424 0,0 -27.0072,-30.2016 -27.0072,-30.2016 -2.55552,-2.776224 -12.626592,-13.439712 -13.6488,-16.1927033 -1.324224,-3.554496 1.533312,-4.53024 4.47216,-4.448928 5.40144,0.151008 9.06048,3.1130879 12.742752,6.7256643 0,0 34.90608,42.909503 34.90608,42.909503 3.449952,3.461568 10.965504,11.116512 16.215936,9.75744 4.785797,-1.231296 14.903327,-11.67408 18.388117,-15.518976 0,0 36.20707,-40.5514554 36.20707,-40.5514554 3.21764,-2.9853119 8.23575,-7.30646384 12.7776,-7.71302384 4.01914,-0.371712 7.46909,2.14896014 6.20295,6.47011184 -1.13837,3.9378244 -11.02359,12.9286074 -14.33415,16.2391674 0,0 -36.0096,34.894464 -36.0096,34.894464 -2.24188,2.137344 -14.18312,13.544256 -14.90331,15.379584 -0.47626,1.208064 -0.44141,1.997952 0,3.206016 0.77827,2.183808 5.66861,7.213536 7.44585,9.246336 6.42364,7.37616 19.27094,18.481058 27.20466,24.532998 3.07824,2.34643 10.18724,8.25898 13.9392,8.30544 3.07824,0.0465 6.4585,-2.95048 9.2928,-4.32117 6.99284,-3.38024 21.74516,-7.10898 28.90061,-3.22924 2.06765,1.11514 3.5545,2.62521 4.01914,5.00649 1.44038,7.57365 -8.73523,9.10696 -12.99831,12.51045 -1.83532,1.46362 -3.4151,3.36864 -2.79945,5.8777 1.70755,6.87667 16.98259,4.33276 18.93408,12.88214 0.85958,3.81005 -2.53229,5.5873 -5.8777,4.9368 -4.42569,-0.8712 -8.6423,-5.62214 -15.07757,-6.65597 -6.33072,-1.03382 -17.30784,3.29895 -24.3936,3.83328 -4.36761,0.32525 -11.16297,-0.38333 -12.16195,-5.66861 -1.39392,-7.39939 8.51453,-11.08166 6.17971,-17.3543 -1.71916,-4.58832 -9.78067,-9.64128 -13.76496,-12.45237 0,0 -27.87839,-21.965846 -27.87839,-21.965846 -3.53126,-2.648448 -10.547325,-8.77008 -15.100797,-7.980192 -2.799456,0.476256 -9.165024,5.122656 -11.616,6.946368 0,0 -23.232,18.79469 -23.232,18.79469 -2.67168,2.13734 -8.851392,7.09738 -8.897856,10.74481 -0.104544,6.79536 20.26992,8.97916 14.485152,19.70073 -2.601984,4.83226 -8.955936,5.01811 -13.718496,4.46055 -8.804928,-1.0106 -23.336544,-4.99488 -31.3632,-3.35703 -10.7099517,2.19543 -11.1513597,7.79434 -19.74719982281,6.01709 z M 18.585463,109.8654 c 1.463616,2.92722 1.870176,3.89135 4.716096,5.84284 3.206016,2.20706 6.574656,3.29896 10.361472,1.90504 6.56304,-2.41614 5.134272,-7.46909 -1.1616,-8.75847 0,0 -5.784768,0 -5.784768,0 0,0 -8.1312,1.01059 -8.1312,1.01059 z m 145.199987,13.93921 c 0,0 4.6464,0.76666 4.6464,0.76666 2.27674,0.16262 9.08372,-0.95252 6.77213,-4.76256 -0.88281,-1.46362 -9.89683,-4.80905 -11.41853,3.9959 z m -119.644787,11.616 c -1.823712,-5.49437 -3.879744,-5.48275 -9.2928,-5.808 1.823712,5.71507 3.682272,5.61053 9.2928,5.808 z m 125.452787,3.4848 c 0,0 -5.808,-2.3232 -5.808,-2.3232 0,0 -1.1616,4.6464 -1.1616,4.6464 4.14692,0.52272 3.93783,0.55757 6.9696,-2.3232 z"
     style="fill:#ffe6d5;stroke:none" />
</svg>
