<?xml version="1.0" encoding="UTF-8" standalone="no"?>
<svg
   xmlns:dc="http://purl.org/dc/elements/1.1/"
   xmlns:cc="http://creativecommons.org/ns#"
   xmlns:rdf="http://www.w3.org/1999/02/22-rdf-syntax-ns#"
   xmlns:svg="http://www.w3.org/2000/svg"
   xmlns="http://www.w3.org/2000/svg"
   xmlns:sodipodi="http://sodipodi.sourceforge.net/DTD/sodipodi-0.dtd"
   xmlns:inkscape="http://www.inkscape.org/namespaces/inkscape"
   width="23.993853mm"
   height="21.25292mm"
   viewBox="0 0 136.02112 120.48278"
   version="1.1"
   id="svg3"
   sodipodi:docname="hd08.svg"
   inkscape:version="1.0.1 (3bc2e813f5, 2020-09-07)">
  <metadata
     id="metadata9">
    <rdf:RDF>
      <cc:Work
         rdf:about="">
        <dc:format>image/svg+xml</dc:format>
        <dc:type
           rdf:resource="http://purl.org/dc/dcmitype/StillImage" />
        <dc:title />
      </cc:Work>
    </rdf:RDF>
  </metadata>
  <defs
     id="defs7" />
  <sodipodi:namedview
     pagecolor="#ffffff"
     bordercolor="#666666"
     borderopacity="1"
     objecttolerance="10"
     gridtolerance="10"
     guidetolerance="10"
     inkscape:pageopacity="0"
     inkscape:pageshadow="2"
     inkscape:window-width="1742"
     inkscape:window-height="1326"
     id="namedview5"
     showgrid="false"
     inkscape:zoom="6.0476878"
     inkscape:cx="48.669177"
     inkscape:cy="32.612614"
     inkscape:window-x="0"
     inkscape:window-y="0"
     inkscape:window-maximized="0"
     inkscape:current-layer="svg3"
     inkscape:document-rotation="0" />
  <path
     id="Sélection"
     fill="none"
     stroke="black"
     stroke-width="1"
     d="m 0,53.916399 c 1.85,-5.33 9.1,-6.07 14,-7.66 0,0 10,-3.34 10,-3.34 6.04,-0.82 10.75,3.19 11.42,9 0.73,3.16 -0.02,5.04 0,8 -0.66,5.34 2.36,11.4 8.58,9.46 5.06,-1.59 16.6,-10.73 24,-11.35 5.88,-0.5 10.92,1.68 12.28,7.89 1.29,5.92 -4.76,16.96 -5.19,24 -1.12,18.340001 25.1,31.730001 40.15,12.910001 9.56,-11.950001 12.44,-31.420001 2.24,-43.870001 -5.35,-6.54 -14.03,-10.61 -21.48,-14.28 -9.07,-4.47 -27.1,-12.68 -23.19,-25.76 0.98,-3.29 3.78,-7.2 6.48,-9.3000002 1.94,-1.51 6.31,-3.27 8.71,-4.28 9.54,-4 27,-9.37 35.55,-0.63 3.03,3.09 1.35,6.0300002 -1.66,8.2500002 -4.93,3.63 -12.77,6.66 -18.89,6.96 0.88,-2.15 3.12,-5.78 2.55,-7.96 -1.96,-7.4900002 -17.09,-4.2500002 -18.05,3.96 -0.83,7.05 10.96,16.81 16.5,19.74 10.86,5.74 27.61,11.27 31.36,24.26 0.77,2.65 0.67,6.22 0.64,9 -0.09,7.6 -1.72,17.28 -5.32,24 C 123.19,106.8764 101.25,121.5064 85,120.4264 c -4.39,-0.29 -11.35,-3.16 -15,-5.61 -10.81,-7.28 -9.32,-16.070001 -6.02,-26.900001 1.27,-4.18 4,-12.07 1.41,-15.94 -3.13,-4.68 -7.02,-3.69 -11.39,-1.75 -4.8,2.13 -17.54,8.92 -22,9.46 -16.07,1.98 -6.32,-17.12 -12.51,-24.63 -4.85,-5.88 -13.24,-2.02 -19.49,-1.14 z"
     style="fill:#ffe6d5;stroke:none" />
</svg>
