<?xml version="1.0" encoding="UTF-8" standalone="no"?>
<svg
   xmlns:dc="http://purl.org/dc/elements/1.1/"
   xmlns:cc="http://creativecommons.org/ns#"
   xmlns:rdf="http://www.w3.org/1999/02/22-rdf-syntax-ns#"
   xmlns:svg="http://www.w3.org/2000/svg"
   xmlns="http://www.w3.org/2000/svg"
   xmlns:sodipodi="http://sodipodi.sourceforge.net/DTD/sodipodi-0.dtd"
   xmlns:inkscape="http://www.inkscape.org/namespaces/inkscape"
   width="28.400057mm"
   height="31.803743mm"
   viewBox="0 0 160.99999 180.29552"
   version="1.1"
   id="svg3"
   sodipodi:docname="hd10.svg"
   inkscape:version="1.0.1 (3bc2e813f5, 2020-09-07)">
  <metadata
     id="metadata9">
    <rdf:RDF>
      <cc:Work
         rdf:about="">
        <dc:format>image/svg+xml</dc:format>
        <dc:type
           rdf:resource="http://purl.org/dc/dcmitype/StillImage" />
      </cc:Work>
    </rdf:RDF>
  </metadata>
  <defs
     id="defs7" />
  <sodipodi:namedview
     pagecolor="#ffffff"
     bordercolor="#666666"
     borderopacity="1"
     objecttolerance="10"
     gridtolerance="10"
     guidetolerance="10"
     inkscape:pageopacity="0"
     inkscape:pageshadow="2"
     inkscape:window-width="1980"
     inkscape:window-height="1320"
     id="namedview5"
     showgrid="false"
     inkscape:zoom="6.4889405"
     inkscape:cx="12.978181"
     inkscape:cy="59.045906"
     inkscape:window-x="0"
     inkscape:window-y="0"
     inkscape:window-maximized="0"
     inkscape:current-layer="svg3"
     inkscape:document-rotation="0" />
  <path
     id="Sélection"
     fill="none"
     stroke="black"
     stroke-width="1"
     d="m 15,28.295509 c 9.71,-7.27 10.19,-0.13 19,7.83 6.22,5.61 16.41,10.59 25,9.84 19.49,-1.68 24.89,-13.43 30.69,-29.67 1.49,-4.15 5.99,-17.6799997 12,-16.17999966 3.14,0.78999999 2.25,6.89999996 1.8,9.17999996 -2.51,12.5699997 -3.73,19.1199997 -0.83,31.9999997 3.35,14.86 18.36,30.61 34.34,29.96 7.27,-0.29 16.13,-4.37 24,-5.96 -2.07,6.3 -9.54,7.53 -15,10.27 -8.02,4.02 -17.98,11 -22.66,18.73 -7.72,12.750001 0.64,33.100001 8.4,44.000001 3.16,4.43 8.61,11.87 1.13,15.81 -5.31,2.79 -11.5,-5.45 -14.87,-8.81 -8.35,-8.31 -15.88,-14.35 -28,-8.81 -7.36,3.36 -14.58,10.88 -16.65,18.81 -4.17,15.96 0.2,24.65 -13.2,25 0,0 0,-9 0,-9 1.12,-6.8 5.11,-15.31 3.28,-22 -1.09,-4.01 -4.42,-7.98 -7.47,-10.7 -17.93,-16.01 -37.77,-4.14 -55.96,3.7 2.74,-5.53 7.29,-7.69 12,-11.45 7.1,-5.67 12.35,-10.33 17.98,-17.55 3.34,-4.27 6.93,-9.89 8.77,-15.000001 6.21,-17.2 -3.15,-37.5 -12.17,-52 0,0 -11.58,-18 -11.58,-18 z m 67,23 c -6.06,0.15 -23.03,4.46 -22.84,12.02 0.12,4.44 5.74,10.96 8.93,13.83 1.72,1.56 4.1,3.39 6.49,2.07 2.8,-1.54 5.34,-13.46 6.27,-16.92 1.3,-4.86 1.63,-5.97 1.15,-11 z m 11,14 c 0,0 -4.79,18 -4.79,18 -0.41,2 -1.33,5.65 0,7.4 1.58,2.1 4.86,0.7 6.79,0 0,0 16.98,-7.13 16.98,-7.13 1.83,-0.89 4.39,-1.97 4.39,-4.39 0,-4.42 -9.89,-8.42 -13.37,-10.61 -4.48,-2.82 -4.7,-3.09 -10,-3.27 z M 47,111.29551 c 4.43,-0.69 18.83,-5.53 20.89,-9.39 2.53,-4.740001 -5.22,-13.670001 -8.89,-16.010001 -1.97,-1.26 -2.83,-1.25 -5,-1.6 0,0 -3.44,16.000001 -3.44,16.000001 0,0 -3.56,11 -3.56,11 z m 57,0 c 0,0 0.9,-6 0.9,-6 0.8,-14.300001 -16.3,-1.65 -5.71,4.69 1.69,1.01 2.96,1.05 4.81,1.31 z m -38.13,4.18 c -3.69,-0.13 -10.24,2.02 -11.62,5.92 -1.45,4.08 4.3,7.94 7.73,8.45 6.43,0.96 9.88,-11.01 3.89,-14.37 z m 17.32,2.47 c -6.07,3.82 -4.63,13.95 -2.59,15.2 1.66,1.02 6.65,-0.77 8.38,-1.5 9.63,-4.06 1.74,-14.3 -5.79,-13.7 z"
     style="fill:#ffe6d5;stroke:none" />
</svg>
