<?xml version="1.0" encoding="UTF-8" standalone="no"?>
<svg
   xmlns:dc="http://purl.org/dc/elements/1.1/"
   xmlns:cc="http://creativecommons.org/ns#"
   xmlns:rdf="http://www.w3.org/1999/02/22-rdf-syntax-ns#"
   xmlns:svg="http://www.w3.org/2000/svg"
   xmlns="http://www.w3.org/2000/svg"
   xmlns:sodipodi="http://sodipodi.sourceforge.net/DTD/sodipodi-0.dtd"
   xmlns:inkscape="http://www.inkscape.org/namespaces/inkscape"
   width="51.0345mm"
   height="43.667892mm"
   viewBox="0 0 289.31451 247.55323"
   version="1.1"
   id="svg3"
   sodipodi:docname="hd12.svg"
   inkscape:version="1.0.1 (3bc2e813f5, 2020-09-07)">
  <metadata
     id="metadata9">
    <rdf:RDF>
      <cc:Work
         rdf:about="">
        <dc:format>image/svg+xml</dc:format>
        <dc:type
           rdf:resource="http://purl.org/dc/dcmitype/StillImage" />
        <dc:title />
      </cc:Work>
    </rdf:RDF>
  </metadata>
  <defs
     id="defs7" />
  <sodipodi:namedview
     pagecolor="#ffffff"
     bordercolor="#666666"
     borderopacity="1"
     objecttolerance="10"
     gridtolerance="10"
     guidetolerance="10"
     inkscape:pageopacity="0"
     inkscape:pageshadow="2"
     inkscape:window-width="1677"
     inkscape:window-height="1195"
     id="namedview5"
     showgrid="false"
     inkscape:zoom="3.0238439"
     inkscape:cx="204.69352"
     inkscape:cy="115.69427"
     inkscape:window-x="984"
     inkscape:window-y="92"
     inkscape:window-maximized="0"
     inkscape:current-layer="svg3"
     inkscape:document-rotation="0" />
  <path
     id="Sélection"
     fill="none"
     stroke="black"
     stroke-width="1.3914"
     d="m 112.71385,57.020534 c 2.11494,-6.650908 9.15544,-12.80091 13.84447,-18.088244 0,0 23.77908,-27.828067 23.77908,-27.828067 2.79672,-2.9358618 9.78157,-10.68597834 13.73314,-11.08948534 4.27162,-0.445249 10.96426,9.32240224 13.66358,12.48088734 9.50329,11.089487 33.17106,30.722187 36.55218,43.133506 0,0 -36.17649,4.174209 -36.17649,4.174209 5.96913,7.165727 9.87897,7.805773 10.88077,18.088244 0.89051,9.113692 -4.10464,19.340506 2.61585,27.452386 5.37082,6.47003 17.6569,7.88926 23.52862,1.55837 3.58983,-3.8681 4.92557,-9.572851 9.18326,-12.675679 3.31154,-2.421044 6.95702,-2.365387 10.83905,-2.421044 0,0 34.78507,1.391403 34.78507,1.391403 0,0 -1.37749,20.87106 -1.37749,20.87106 -0.34785,15.54196 4.1603,41.03247 6.35872,57.04753 0,0 0.89049,9.73982 0.89049,9.73982 2.03145,11.63213 15.0689,16.71075 13.34356,32.00226 -1.71142,15.22197 -16.37682,24.41914 -30.34651,26.43667 4.34117,-9.18325 9.87897,-10.96425 13.10702,-18.08823 7.12398,-15.7646 -14.76279,-35.66167 -29.80384,-34.64594 -8.52933,0.55655 -18.77005,7.01267 -25.83839,1.23835 -5.34296,-4.3551 -1.1966,-9.51722 -7.06832,-18.07435 -11.56255,-16.83597 -35.87037,-27.71674 -56.14312,-26.31144 -17.29514,1.19663 -36.06517,11.10342 -50.09052,20.77366 -4.369006,3.01936 -17.128176,13.30183 -20.87105,14.44278 -7.86143,2.40713 -13.051364,-5.35691 -20.87105,-9.01631 -12.522632,-5.87171 -20.801481,-1.83664 -30.555218,6.53961 -13.719237,11.77127 -21.5945812,31.19526 -8.111883,46.38938 9.364146,10.56076 20.857137,10.32422 18.269127,17.90737 -2.295816,6.73439 -15.458492,7.931 -21.344128,6.6509 C 6.8976275,244.373 0.17714953,231.86428 0.01018053,219.81472 c -0.264366,-19.43789 4.57771737,-29.70645 19.47964747,-42.73 0,0 19.869241,-16.12636 19.869241,-16.12636 4.313349,-5.74649 6.525682,-29.40035 6.567424,-37.15047 0.02783,-5.0647 1.196607,-28.426365 2.629751,-31.946616 0.973984,-2.3793 2.254073,-4.076812 4.508148,-5.384731 2.977602,-1.697512 15.611545,-2.128848 20.690168,-3.186315 4.202038,-0.876583 12.550457,-4.577715 16.265504,-2.462783 5.82998,3.325454 1.558372,17.517769 4.048985,23.306005 2.434955,5.67693 10.616411,5.69084 15.862001,5.76041 4.35509,0.0417 11.31212,0.33394 15.11065,-1.82274 7.90317,-4.49423 6.72047,-25.782701 9.65632,-34.29809 2.75499,-7.986654 6.91528,-5.454301 11.40951,-13.96969 -17.54558,-3.534164 -15.7785,-2.782806 -33.39368,-2.782806 z m 69.57016,-6.957017 c -0.22261,-2.685408 -0.15305,-4.410749 -1.41923,-6.957017 -2.81063,-5.62127 -13.94185,-16.599441 -20.84322,-15.430662 -9.76765,1.641855 -21.06584,13.66358 -25.04525,22.387679 10.50509,4.132468 34.77116,0 47.3077,0 z m 52.87335,129.400513 c 4.74468,0 13.99751,0.84875 17.65688,-2.22624 4.06292,-3.42286 3.00546,-8.5154 2.11494,-13.0792 0,0 0,-25.04526 0,-25.04526 0,0 -1.43314,-19.47964 -1.43314,-19.47964 0.30611,-4.34118 1.92014,-10.83904 0.70961,-15.12456 -1.37748,-4.800342 -6.42827,-6.080433 -10.64422,-4.0629 -8.11189,3.90985 -5.5378,12.82875 -14.02535,17.7404 -9.64243,5.21776 -28.03677,1.04355 -38.90365,0 -5.52386,-0.26437 -11.68777,-0.11131 -15.72285,-4.70295 -4.66119,-5.27342 -3.68721,-15.054983 -3.75679,-21.678063 -0.0974,-7.555319 -1.79492,-24.711323 -13.76097,-19.66053 -5.77434,2.421043 -5.38475,7.51358 -5.94129,12.703513 -1.04357,9.461543 -0.18088,28.14809 -9.57287,32.79538 -3.24197,1.60011 -24.8922,3.46459 -29.16381,3.32545 0,0 -13.914031,-1.33574 -13.914031,-1.33574 -5.245591,-0.25046 -13.788807,-0.72353 -17.656908,-4.60554 -6.386542,-6.42829 0.44525,-19.590969 -8.86324,-22.596401 -5.80215,-1.878394 -9.4198,4.59163 -10.811203,9.113691 -2.059278,6.77614 -4.313351,28.78814 -4.410748,36.17649 -0.05565,5.10645 -0.473078,12.03564 2.017534,16.55769 5.384731,9.7259 21.483269,12.73135 31.376145,9.82331 15.681121,-4.60554 20.328401,-14.01142 40.350711,-23.4034 24.47477,-10.96426 54.97433,-12.48089 79.30998,0 14.58191,7.09615 24.83655,15.94548 25.04527,33.19889 0,0 0,5.56561 0,5.56561 z"
     style="fill:#ffe6d5;stroke:none" />
</svg>
