<?xml version="1.0" encoding="UTF-8" standalone="no"?>
<svg
   xmlns:dc="http://purl.org/dc/elements/1.1/"
   xmlns:cc="http://creativecommons.org/ns#"
   xmlns:rdf="http://www.w3.org/1999/02/22-rdf-syntax-ns#"
   xmlns:svg="http://www.w3.org/2000/svg"
   xmlns="http://www.w3.org/2000/svg"
   xmlns:sodipodi="http://sodipodi.sourceforge.net/DTD/sodipodi-0.dtd"
   xmlns:inkscape="http://www.inkscape.org/namespaces/inkscape"
   width="100mm"
   height="100mm"
   viewBox="0 0 566.89975 566.89932"
   version="1.1"
   id="svg643"
   sodipodi:docname="cyan-bleu.svg"
   inkscape:version="1.0.1 (3bc2e813f5, 2020-09-07)">
  <metadata
     id="metadata649">
    <rdf:RDF>
      <cc:Work
         rdf:about="">
        <dc:format>image/svg+xml</dc:format>
        <dc:type
           rdf:resource="http://purl.org/dc/dcmitype/StillImage" />
        <dc:title></dc:title>
      </cc:Work>
    </rdf:RDF>
  </metadata>
  <defs
     id="defs647" />
  <sodipodi:namedview
     pagecolor="#ffffff"
     bordercolor="#666666"
     borderopacity="1"
     objecttolerance="10"
     gridtolerance="10"
     guidetolerance="10"
     inkscape:pageopacity="0"
     inkscape:pageshadow="2"
     inkscape:window-width="3840"
     inkscape:window-height="2066"
     id="namedview645"
     showgrid="false"
     inkscape:zoom="1.3841945"
     inkscape:cx="906.67027"
     inkscape:cy="400.72914"
     inkscape:window-x="-11"
     inkscape:window-y="-11"
     inkscape:window-maximized="1"
     inkscape:current-layer="svg643"
     inkscape:document-rotation="0" />
  <path
     id="Sélection #3"
     fill="none"
     stroke="#000000"
     stroke-width="0.6"
     d="m 329.91563,75.378242 c -0.996,-7.05 -5.682,-15.12 -5.844,-22.2 -0.132,-5.466 3.738,-7.662 3.894,-10.8 0.138,-2.73 -1.992,-4.416 -2.208,-6.6 -0.138,-1.41 0.756,-3.48 1.278,-4.8 1.506,-3.81 4.194,-8.838 6.762,-12 5.724,-7.05 14.478,-11.73 23.718,-11.208 5.688,0.324 3.21,-1.296 7.254,-3.114 4.578,-2.058 10.098,-1.572 14.346,0.978 3.924,2.364 6.102,5.61 7.878,9.744 0.714,1.662 1.542,5.076 2.658,6.18 0.888,0.882 3.738,1.986 5.064,2.748 3.69,2.124 7.488,5.382 8.4,9.672 0,0 -4.8,-3 -4.8,-3 1.764,7.404 5.964,6.99 10.8,11.4 0,0 -6.6,-2.4 -6.6,-2.4 0,0 1.608,7.2 1.608,7.2 -0.036,2.634 -1.968,3.576 -1.218,6.6 1.392,5.61 6.024,6.12 6.21,14.4 -2.286,-2.052 -3.174,-4.35 -4.2,-7.2 -4.146,2.18401 -1.74,4.542 -0.6,10.2 -5.862,-3.048 -4.17,-9.876 -10.2,-13.2 0,9.552 3.042,12.132 6,21 0,0 2.4,-1.2 2.4,-1.2 0,0 1.8,6.6 1.8,6.6 -5.724,-2.19 -6.948,-4.524 -9.6,-9.6 -0.33,6.576 0.828,5.844 2.4,11.4 -4.368,-2.466 -3.024,-6.702 -7.8,-12.6 0,4.56 -0.45,8.31 1.512,12.6 1.116,2.442 2.97,4.41 4.488,6.6 -5.46,-1.164 -7.626,-7.734 -9,-12.6 0,0 -1.2,0 -1.2,0 -0.75,1.878 -2.874,6.468 -2.19,8.346 0.672,1.854 5.814,5.022 7.59,6.258 0,0 8.454,7.109998 8.454,7.109998 2.838,1.956 5.574,2.01 9.138,6.492 2.85,3.588 5.088,8.48401 7.158,12.59401 0,0 3.666,7.2 3.666,7.2 0,0 2.784,17.4 2.784,17.4 0,0 -0.408,8.4 -0.408,8.4 0,0 0.51,8.4 0.51,8.4 0,0 2.796,23.4 2.796,23.4 0,0 0.876,13.8 0.876,13.8 0,0 1.554,7.794 1.554,7.794 0.732,1.89 1.776,2.496 2.322,4.308 0.894,2.976 0.786,8.676 0.75,11.898 -0.15,12.876 -4.572,33.024 -6.948,46.2 0,0 -3.918,26.4 -3.918,26.4 -0.996,4.416 -0.132,4.578 -0.408,7.8 -0.84,9.834 -2.436,28.356 -12.126,33.888 -2.184,1.152 -3.024,-0.258 -4.404,0 -1.974,0.576 -1.188,2.334 -5.796,2.712 0.438,-5.424 6.972,-8.868 1.188,-10.674 -0.774,-0.09 -1.59,-0.078 -2.388,0 -0.33,3.948 -0.654,3.546 -0.6,8.274 0,0 1.608,15 1.608,15 0,0 -0.408,5.4 -0.408,5.4 -0.096,20.292 -0.462,27.528 6.018,47.4 1.5,4.596 6.312,8.274 9.096,13.8 4.308,8.55 8.568,25.812 9.03,35.4 0,0 0,13.8 0,13.8 -0.132,7.2 1.44,10.692 1.596,13.8 0,0 -0.348,4.2 -0.348,4.2 -0.678,9.06 4.926,21.132 7.356,30 0,0 2.832,13.2 2.832,13.2 0.24,2.136 -0.738,2.772 0.708,8.4 0.94803,3.69 2.62803,7.032 4.72803,10.2 1.026,1.548 3.276,4.32 3.648,6 0.426,1.944 -2.358,7.854 -4.026,8.898 -1.23,0.762 -4.77603,0.81 -6.43803,1.05 -4.446,0.636 -12.6,1.938 -16.8,1.176 -1.698,-0.312 -4.512,-1.074 -5.628,-2.454 -2.148,-2.64 1.878,-3.858 2.868,-6.324 0,0 0.84,-5.346 0.84,-5.346 0,0 1.896,-11.4 1.896,-11.4 0.27,-7.008 -2.844,-6.498 -3.492,-10.8 -1.212,-8.1 0.252,-18.792 -2.244,-26.4 -1.242,-3.798 -6.684,-12.498 -8.988,-16.2 -6.378,-10.242 -13.434,-20.322 -18.696,-31.2 -3.108,-6.42 -5.43,-13.482 -7.134,-20.4 0,0 -2.274,-10.8 -2.274,-10.8 -1.422,-3.246 -7.398,-9.942 -8.136,-11.4 -1.542,-3.036 -0.318,-7.752 -3.264,-15.6 0,0 -5.304,-12 -5.304,-12 0,0 -3.528,-6.6 -3.528,-6.6 0,0 -4.086,-9.6 -4.086,-9.6 0,0 -1.884,-6 -1.884,-6 0,0 -4.146,-10.2 -4.146,-10.2 -4.38,6.732 -5.292,11.508 -8.16,18.6 0,0 -5.136,10.2 -5.136,10.2 0,0 -1.47,9.6 -1.47,9.6 -1.104,6.228 -3.366,13.662 -3.228,19.8 0.084,3.588 0.798,4.416 0.96,6.6 0,0 -0.342,4.8 -0.342,4.8 0,0 1.776,19.8 1.776,19.8 0.192,16.572 -6.852,23.238 -11.598,37.8 -2.052,6.288 -1.938,9.468 -3.162,15.6 -2.358,11.772 -4.242,21.504 -4.44,33.6 -0.096,5.538 -2.616,5.832 -2.658,10.8 -0.03,3.924 2.22,9.48 3.606,13.2 0.69,1.86 1.878,4.464 0.402,6.216 -2.742,3.252 -7.416,2.022 -10.95,1.608 0,0 -5.4,0 -5.4,0 0,0 -9.6,0 -9.6,0 0,0 -7.2,0 -7.2,0 0,0 -12,0.576 -12,0.576 0,0 -13.2,0.6 -13.2,0.6 0.006,-1.884 0.078,-7.824 1.56,-8.988 1.074,-0.84 4.242,-0.594 5.64,-0.612 3.69,-0.054 4.29,-0.486 7.2,-2.76 7.17,-5.616 4.83,-5.298 9.78,-12.24 2.304,-3.24 5.226,-6.504 6.738,-10.2 0,0 1.662,-6 1.662,-6 1.314,-4.602 3.168,-8.946 3.69,-13.8 0,0 0,-5.4 0,-5.4 0,0 1.362,-8.4 1.362,-8.4 1.08,-8.016 1.38,-15.918 1.368,-24 0,0 -3.6,-27.6 -3.6,-27.6 0,0 0,-18.6 0,-18.6 -0.012,-7.86 -1.788,-6.852 -1.8,-14.4 0,0 0,-9.6 0,-9.6 0,0 1.8,-24.6 1.8,-24.6 0,0 0,-13.8 0,-13.8 0,0 -1.224,-10.8 -1.224,-10.8 0,0 0,-5.4 0,-5.4 0,0 -0.756,-7.2 -0.756,-7.2 -0.606,-4.254 -1.014,-3.234 -1.02,-8.4 0,0 0,-43.2 0,-43.2 0.078,-6.318 4.11,-24.174 5.652,-31.2 0.57,-2.592 2.592,-11.034 2.328,-13.2 -0.384,-3.198 -4.008,-6.816 -6.18,-9 0,0 -13.122,-13.8 -13.122,-13.8 -9.552,-11.25 -14.352,-21.69 -17.358,-36 -0.912,-4.332 -1.866,-6.102 -1.92,-10.8 -0.018,-1.668 -0.126,-4.494 0.444,-6 1.044,-2.778 7.878,-9.522 10.212,-12.6 0,0 2.91,-4.032 2.91,-4.032 0,0 10.932,-10.968 10.932,-10.968 0,0 12.156,-14.4 12.156,-14.4 0,0 11.37,-11.42401 11.37,-11.42401 3.81,-5.592 3.792,-8.67 10.23,-15.575998 1.314,-1.416 3.51,-3.714 5.346,-4.362 1.35,-0.426 2.286,-0.108 3.6,0 5.61,0.312 10.734,-2.394 15.6,-4.782 1.494,-0.738 4.662,-1.95 5.646,-3.102 0.696,-0.828 0.882,-1.728 1.092,-2.754 1.392,-6.942 -4.572,-7.086 -9.738,-7.2 z m 58.8,-49.2 c -0.384,1.758 0.276,1.8 1.8,2.4 0,0 -1.8,-2.4 -1.8,-2.4 z m 3,9 c -0.72,-2.052 -0.876,-2.028 -3,-2.4 0,0 3,2.4 3,2.4 z m 9.6,10.8 c -0.894,-4.764 -6.084,-12.882 -11.4,-7.8 7.968,3.756 5.208,2.718 11.4,7.8 z m -1.2,8.4 c -0.018,-6.576 -1.392,-10.842 -8.4,-12.6 0.15,5.988 3.714,9.246 8.4,12.6 z m 0,3 c 0,0 0.6,3 0.6,3 0,0 -0.6,-3 -0.6,-3 z m -21.6,7.2 c -1.32,1.824 -1.32,2.376 0,4.2 0,0 0,-4.2 0,-4.2 z m 9,0.6 c 0,0 -1.8,1.8 -1.8,1.8 0,0 1.8,-1.8 1.8,-1.8 z m -14.4,6 c -3.582,4.296 -1.944,11.34 3,13.8 0,0 1.308,-4.8 1.308,-4.8 0.234,-2.664 -2.472,-7.146 -4.308,-9 z m 11.4,6.6 c 0,0 -1.8,-0.6 -1.8,-0.6 0,0 -0.6,3 -0.6,3 0,0 2.4,-2.4 2.4,-2.4 z m -4.2,4.8 c 0,0 -1.2,0 -1.2,0 0,0 -1.8,4.8 -1.8,4.8 2.802,-1.014 3.51,-1.794 3,-4.8 z m 11.4,77.400008 c 0,0 -1.2,0 -1.2,0 -4.542,6.81 -16.272,21.564 -17.676,28.794 -0.696,3.606 1.764,3.432 2.016,8.406 0,0 -0.516,6 -0.516,6 0,0 4.176,30 4.176,30 0,0 -0.912,9 -0.912,9 0.264,1.842 2.454,5.628 3.276,7.8 1.566,4.152 0.96,4.92 1.614,7.2 0,0 2.478,6.6 2.478,6.6 0,0 0.966,6.6 0.966,6.6 0,0 2.052,7.8 2.052,7.8 2.088,9.858 1.218,11.586 5.526,21.6 8.136,-3.192 11.904,-16.53 11.94,-24.6 0,0 0,-7.2 0,-7.2 0,0 0.576,-4.2 0.576,-4.2 0,0 -0.678,-11.4 -0.678,-11.4 -1.056,-6.912 -4.938,-20.724 -4.584,-27 0.456,-7.968 1.764,-7.044 1.746,-19.2 -0.012,-7.95 -1.734,-9.834 -3.732,-16.8 0,0 -1.29,-6 -1.29,-6 0,0 -2.772,-9.6 -2.772,-9.6 -1.266,-4.626 -0.942,-9.432 -3.006,-13.8 z m -93.6,0.6 c -3.384,0.984 -4.926,3.018 -7.8,4.95 -3.12,2.1 -7.146,3.792 -10.8,4.65 0,9.864 1.998,28.722 5.436,37.8 1.524,4.008 4.122,10.374 8.964,10.764 6.198,0.504 5.712,-2.874 6.366,-6.564 0,0 1.434,-7.2 1.434,-7.2 0.762,-3.912 1.464,-8.628 1.146,-12.6 0,0 -2.676,-11.4 -2.676,-11.4 -1.134,-5.658 -2.07,-14.646 -2.07,-20.4 z m 100.2,150 c -5.748,0.684 -4.26,3.648 -4.116,6.852 0.156,3.468 -0.192,3 0.516,6.948 0,0 4.956,-1.788 4.956,-1.788 2.136,-1.86 -0.72,-9.594 -1.356,-12.012 z"
     style="fill:#006680;stroke:none" />
</svg>
