<?xml version="1.0" encoding="UTF-8" standalone="no"?>
<svg
   xmlns:dc="http://purl.org/dc/elements/1.1/"
   xmlns:cc="http://creativecommons.org/ns#"
   xmlns:rdf="http://www.w3.org/1999/02/22-rdf-syntax-ns#"
   xmlns:svg="http://www.w3.org/2000/svg"
   xmlns="http://www.w3.org/2000/svg"
   xmlns:sodipodi="http://sodipodi.sourceforge.net/DTD/sodipodi-0.dtd"
   xmlns:inkscape="http://www.inkscape.org/namespaces/inkscape"
   width="100mm"
   height="100mm"
   viewBox="0 0 566.90038 566.89936"
   version="1.1"
   id="svg747"
   sodipodi:docname="gigant.svg"
   inkscape:version="1.0.1 (3bc2e813f5, 2020-09-07)">
  <metadata
     id="metadata753">
    <rdf:RDF>
      <cc:Work
         rdf:about="">
        <dc:format>image/svg+xml</dc:format>
        <dc:type
           rdf:resource="http://purl.org/dc/dcmitype/StillImage" />
        <dc:title></dc:title>
      </cc:Work>
    </rdf:RDF>
  </metadata>
  <defs
     id="defs751" />
  <sodipodi:namedview
     pagecolor="#ffffff"
     bordercolor="#666666"
     borderopacity="1"
     objecttolerance="10"
     gridtolerance="10"
     guidetolerance="10"
     inkscape:pageopacity="0"
     inkscape:pageshadow="2"
     inkscape:window-width="3840"
     inkscape:window-height="2066"
     id="namedview749"
     showgrid="false"
     inkscape:zoom="0.8953376"
     inkscape:cx="191.82827"
     inkscape:cy="690.92493"
     inkscape:window-x="-11"
     inkscape:window-y="-11"
     inkscape:window-maximized="1"
     inkscape:current-layer="svg747"
     inkscape:document-rotation="0" />
  <path
     id="Sélection #2"
     fill="none"
     stroke="#000000"
     stroke-width="0.38025"
     d="m 331.22495,8.3521689 c 0,0 1.14075,0 1.14075,0 -0.22434,1.437345 -1.56282,4.5363821 -1.0685,5.5782671 0.55517,1.163565 3.63138,2.467823 4.871,2.688368 1.32708,0.235755 2.09137,-0.07219 3.8025,0.520942 3.39564,1.174973 3.83673,3.350003 8.3655,3.760673 0,0 -0.38025,1.90125 -0.38025,1.90125 0,0 4.563,-1.14075 4.563,-1.14075 0.50574,2.95074 2.26629,1.9773 6.084,2.66175 0,0 0,1.90125 0,1.90125 2.60472,0.528547 3.22072,1.59705 5.3235,3.003975 0.69205,0.463905 1.70352,0.924007 1.98111,1.707322 0.50572,0.924008 0.14829,2.334735 0,3.273953 4.43371,0.859365 7.26277,5.924295 4.10289,7.98525 -0.007,-2.730195 -0.17111,-4.45653 -2.66936,-6.141038 -0.74148,-0.50193 -1.9887,-1.148355 -2.80624,-0.44109 -0.88598,0.764303 -0.32321,2.247278 -0.98865,3.920378 -2.52486,-3.338595 -3.77208,-4.524975 -7.98525,-4.563 -0.11021,0.73008 -0.53996,2.4336 -0.41067,3.02679 0.4563,2.102782 3.92418,2.893702 5.73417,3.05721 -0.3156,3.764475 -1.57043,6.26652 -1.521,11.02725 0.0342,2.99637 0.74529,4.802557 4.18275,3.981217 1.35369,-0.323212 2.52486,-1.17117 3.8025,-1.699717 -0.49052,4.224577 -3.947,3.42225 -7.22475,3.42225 0.51334,1.01907 0.96964,1.874632 2.2815,1.878435 1.00006,0.0035 3.42606,-1.540013 6.8445,-0.50193 3.3348,1.015267 5.11816,3.677017 6.8445,3.654202 0,0 1.90125,-0.467707 1.90125,-0.467707 0,0 -1.14075,4.18275 -1.14075,4.18275 3.52872,0.711067 3.67702,0.962032 7.22475,-0.38025 -0.37265,1.015267 -1.28144,2.186437 0,2.66175 0,0 -1.18638,1.087515 -1.18638,1.087515 0,0 -10.22112,0.433485 -10.22112,0.433485 0.37264,1.829002 1.61607,5.950912 4.18275,5.36913 1.45255,-0.330818 2.54388,-2.334735 4.94325,-3.46788 0,0 -3.8025,5.70375 -3.8025,5.70375 4.36527,0.878377 8.0575,1.498185 12.54825,1.521 0,0 6.084,0.38025 6.084,0.38025 4.23598,0.007 8.35789,0.585585 12.54825,1.14075 -0.32321,3.570547 -1.79478,4.779742 -3.66561,7.605 -0.60459,0.908797 -1.84421,2.638935 -1.50198,3.768277 0.26236,0.859365 4.26259,4.118108 5.3235,5.357723 0,0 6.93955,8.745751 6.93955,8.745751 0,0 2.64275,3.042 2.64275,3.042 0,0 1.5286,2.20165 1.5286,2.20165 1.16736,1.35749 2.24727,1.30806 3.74166,3.13706 1.96589,2.40698 3.27395,7.21334 4.16373,10.25154 0,0 1.88225,4.94325 1.88225,4.94325 0.55896,1.95068 0.41446,4.09529 0.69966,6.084 0.55135,3.88996 0.98865,1.54001 1.06089,7.605 0.0342,2.76441 0.4563,2.57429 0.69205,4.563 0.24717,2.11799 -0.26617,2.99256 -0.26236,3.9622 0,0 0.25096,2.50205 0.25096,2.50205 0,0 -1.98111,9.8865 -1.98111,9.8865 0,0 -2.15221,7.98525 -2.15221,7.98525 -0.60459,1.75675 -1.66929,3.41845 -1.54382,5.3235 0,0 1.95449,8.74575 1.95449,8.74575 1.6693,5.81782 3.658,11.14893 6.81408,16.35075 1.12935,1.85562 2.73019,4.03446 4.11811,5.70375 1.11033,1.33087 2.36895,2.43741 2.71499,4.18275 0,0 0.68824,4.563 0.68824,4.563 -0.076,1.15977 -0.59698,1.84801 -0.616,3.42225 0,0 0.41067,4.18275 0.41067,4.18275 0,0 3.24733,22.0545 3.24733,22.0545 0.13689,1.54381 -0.20533,1.84801 -0.22054,3.042 0,0 0.3042,4.563 0.3042,4.563 0,0 0,7.22475 0,7.22475 -0.25857,2.23207 -0.81374,3.11805 -0.71487,5.70375 0,0 0.71107,9.50625 0.71107,9.50625 0,0 -1.48297,11.4075 -1.48297,11.4075 -0.0951,4.19416 0.616,3.72645 1.31566,6.8445 0,0 0.58178,6.084 0.58178,6.084 0.9202,0.27759 1.38411,0.36504 2.00392,1.19779 0.67304,0.905 1.68831,6.6924 1.6655,7.92821 0,0 -0.42588,2.66175 -0.42588,2.66175 0,0 0.54375,3.42225 0.54375,3.42225 0.27378,5.42997 -3.20931,6.28173 -3.01158,11.4075 0.21294,5.57446 3.01918,10.74586 3.02679,16.35075 0.004,3.06862 0.0105,8.12214 0.72247,11.02725 0.71108,2.91271 1.38792,2.86708 2.36136,4.94325 0,0 1.03808,2.66175 1.03808,2.66175 0,0 1.58184,2.2815 1.58184,2.2815 -2.42979,3.39943 -2.67315,5.9205 -3.26255,9.8865 -0.18631,1.24722 -0.53235,4.26261 -1.0837,5.27026 -0.99626,1.8252 -3.01158,1.19019 -4.33106,1.96209 -1.42593,0.83276 -4.16373,5.89767 -4.32724,7.59739 -0.18632,0.80613 -0.0723,1.14075 0,1.90125 -2.86709,1.3613 -3.46788,0.33081 -5.6277,1.00766 -3.57435,1.12174 -4.91283,4.32345 -4.94325,7.73809 -4.96607,0.65403 -5.95851,-0.41827 -9.126,-0.28138 -2.05715,0.0913 -2.94693,1.17496 -4.94325,1.3803 -2.5857,0.26998 -4.80255,-0.36504 -7.18292,1.48678 -2.64654,2.05715 -0.85176,4.09149 -0.99246,6.16005 -0.0798,1.18257 -1.33087,3.76827 -1.87843,4.94325 -1.46396,3.14466 -2.95074,3.28916 -4.08768,4.70369 -1.00007,1.25103 -2.00393,4.38429 -2.70738,5.94331 0,0 -2.1104,4.563 -2.1104,4.563 -0.36504,1.5134 0.46772,3.32718 0.68826,4.94325 0,0 0,9.126 0,9.126 -0.004,1.79097 -0.85176,6.05358 0,7.46051 0.39546,0.58938 0.98865,0.90879 1.54001,1.28524 -0.59319,2.53626 -1.87844,5.36913 -3.21311,7.605 0,0 -2.4222,3.58196 -2.4222,3.58196 -0.17871,0.69205 -0.0571,2.08756 0,2.88229 -0.1635,4.04586 -2.42218,7.27418 -2.69596,11.02725 -0.41067,5.6201 2.09517,4.75692 0.46009,9.50625 0,0 -3.28915,9.126 -3.28915,9.126 -1.01528,4.29302 -0.36885,4.36907 -0.80234,6.8445 -0.24336,1.39172 -1.2168,6.44904 -0.73387,7.54796 0.616,1.40313 2.02672,1.02667 3.19029,1.47918 1.3575,0.52854 2.22066,1.62366 3.042,2.76061 0,0 -3.8025,4.563 -3.8025,4.563 0,0 5.3235,0 5.3235,0 -0.0647,1.39932 -0.7719,3.77208 -0.53996,4.62764 0.36125,1.33848 2.14082,4.04586 2.94695,5.25886 2.18263,3.27395 4.70368,6.33876 7.47951,9.126 2.71498,2.72639 2.94694,3.7949 6.8445,3.8025 0,0 6.46425,0 6.46425,0 0.13309,1.48677 0.63502,3.99642 1.71493,5.08394 1.01147,1.01907 3.52491,1.65028 4.79115,3.39564 1.19399,1.64647 0.42588,3.17128 0.35744,4.44892 -0.12549,2.46402 1.24341,2.68836 -1.54002,7.605 -3.59717,-0.72628 -4.78734,-1.60465 -8.74575,-1.5172 0,0 -3.42225,0.35743 -3.42225,0.35743 0,0 -6.8445,0 -6.8445,0 0,0 -3.8025,-0.34602 -3.8025,-0.34602 0,0 -6.46425,0 -6.46425,0 0,0 -6.084,0.63122 -6.084,0.63122 -1.61987,-0.0191 -1.55522,-0.71487 -4.94325,-0.64263 0,0 -3.42225,0.34222 -3.42225,0.34222 0,0 -8.3655,0.4487 -8.3655,0.4487 0,0 -4.563,0.34603 -4.563,0.34603 0,0 -18.63225,0 -18.63225,0 -4.93565,-0.008 -4.75692,-1.04949 -8.3655,-1.14075 0,-2.5933 -0.28518,-4.55539 1.23582,-6.8445 2.72638,-4.1067 6.98899,-3.55534 4.46793,-7.98525 2.81766,-3.09523 4.1067,-5.75698 4.77594,-9.8865 0.49813,-3.06862 0.98865,-4.67328 -2.49444,-5.70375 0.31941,-1.12554 1.93548,-5.11056 2.58951,-5.94331 0.89739,-1.13315 2.08756,-1.35749 3.14466,-3.56294 1.60086,-3.33099 1.76436,-7.44529 2.30052,-11.02725 0,0 1.02286,-4.563 1.02286,-4.563 0.1407,-1.18638 0.18633,-2.68837 -0.53995,-3.69223 -0.98105,-1.36509 -2.61612,-1.68071 -2.34614,-3.91658 0.29279,-2.42599 2.52866,-4.00023 3.54393,-6.08019 0.69966,-1.43355 0.66543,-4.12572 0.43728,-5.70375 0,0 -4.87099,-16.731 -4.87099,-16.731 0,0 -1.37271,-6.46425 -1.37271,-6.46425 0,0 -0.71106,-4.87861 -0.71106,-4.87861 -0.76431,-1.8252 -5.95472,-5.95472 -6.40341,-7.01942 -0.22055,-0.52474 -0.20534,-1.2282 -0.21675,-1.79097 -0.0418,-2.65035 0.34983,-8.26663 2.43741,-10.11085 1.41832,-1.25102 2.56288,0.28899 4.02304,-0.24336 0.69585,-0.25476 1.24341,-0.88598 1.74155,-1.40693 2.53626,-2.63893 2.00772,-2.63893 2.06475,-6.11061 0.0684,-3.90897 2.64274,-4.81396 2.90892,-8.3655 0.19392,-2.60091 -2.56289,-4.02304 -1.15977,-8.3655 1.20159,-3.71505 4.49076,-6.10302 4.65807,-8.74575 0.11787,-1.8138 -0.96965,-4.73031 -1.58184,-6.46425 -1.54002,-4.36147 -2.30432,-6.49087 -4.53258,-10.647 0,0 -2.74161,-4.56299 -2.74161,-4.56299 -0.69966,-1.40312 -0.63122,-3.21692 -1.14075,-4.94325 0,0 -2.63894,-7.22475 -2.63894,-7.22475 -0.50193,-2.05335 0.0647,-3.24353 0,-4.94325 0.1521,-3.00777 -1.66549,-2.91651 -0.23575,-6.084 -3.62378,-0.42207 -4.23599,-3.74927 -4.94325,-6.8445 -0.78332,0.32701 -1.45256,0.53616 -2.00012,1.24342 -0.87837,1.13694 -0.87837,4.29683 -0.21673,5.53644 0.53995,1.01526 1.65028,1.60466 1.76055,3.09143 0.11407,1.44876 -0.90119,1.86703 -1.79097,2.75682 -1.8252,1.82139 -1.54002,3.12945 -4.67708,2.96214 0.0647,0.62742 0.0874,1.28524 0,1.89364 -0.63502,1.95449 -2.60851,2.73401 -4.48315,2.39558 -1.30806,-0.23576 -2.47923,-1.15215 -3.63899,0 -1.95448,1.93927 -0.0799,6.01176 -0.92401,9.01953 -3.20931,-2.06096 -2.34995,-3.69222 -4.31204,-5.6201 -0.93541,-0.88978 -2.32713,-1.46016 -3.08382,0 0,0 -0.58939,1.74536 -0.58939,1.74536 -1.04949,-0.13689 -3.48309,-1.00386 -4.22457,0 -0.53996,0.51714 0.019,3.27015 0,4.25499 -1.82901,-0.17492 -4.87101,-1.31946 -4.25501,-3.78729 0.38406,-1.54382 1.40313,-1.01907 1.63508,-3.81771 -3.87474,0.10261 -4.61624,2.97355 -6.34637,5.70375 0,0 -2.63893,4.01544 -2.63893,4.01544 -0.9012,1.04949 -2.01914,1.65789 -2.77203,2.86327 -0.96203,1.54002 -0.69966,3.02679 -3.76067,6.81028 -2.24347,2.76822 -5.12197,4.20936 -5.66193,6.09921 0,0 -0.70726,6.82929 -0.70726,6.82929 -0.38025,1.17878 -1.25102,1.96209 -1.71492,3.042 -0.35364,0.82895 -1.10273,5.59347 -0.95063,6.46425 0.18252,1.07231 1.11794,2.69217 1.56663,3.8025 0,0 2.03433,5.70375 2.03433,5.70375 0,0 1.82901,3.042 1.82901,3.042 0,0 0.50573,4.563 0.50573,4.563 0.37264,2.21685 1.08372,1.88984 1.12554,5.3235 0.057,4.75692 -0.70346,5.87486 -1.95449,10.26675 0,0 -1.51339,5.3235 -1.51339,5.3235 0,0 -3.82911,5.70375 -3.82911,5.70375 -1.79099,2.92412 -1.95449,4.42611 -3.21312,7.22475 0,0 -2.23587,3.8025 -2.23587,3.8025 -0.66164,1.57424 -1.12934,3.98882 -0.88979,5.68854 0.22436,1.58564 1.27385,2.17122 0.67685,3.31958 -0.94302,1.81759 -7.20954,3.88996 -7.98905,5.56306 -0.98485,2.11038 3.8025,2.84046 4.5554,4.20936 0.56277,1.02288 -0.82515,5.71517 -1.09893,7.07646 0,0 -7.98525,-2.2815 -7.98525,-2.2815 -0.4487,1.19399 -1.0647,2.84046 -0.53235,4.10289 0.49813,1.18638 4.35387,3.13707 3.77208,6.89013 -0.19392,1.24722 -3.042,3.66182 -3.35,6.49848 -0.21294,1.9811 1.07991,2.60091 0.95823,5.3235 -0.25477,5.76459 2.94314,7.7609 2.95454,14.82975 0.004,2.69978 0.0608,2.98877 -0.41067,5.70375 -0.18632,1.05329 -0.64262,2.40698 -0.28899,3.42225 0.42588,1.2282 3.77968,4.74552 5.14858,8.3655 1.22061,3.72264 -0.0456,6.66959 0,7.55556 0.20534,0.68826 0.88218,1.3575 1.25483,1.95069 0,0 -8.3655,0.69206 -8.3655,0.69206 0,0 -6.8445,-0.31181 -6.8445,-0.31181 0,0 -5.3235,0.34602 -5.3235,0.34602 0,0 -5.3235,-0.66163 -5.3235,-0.66163 0,0 -11.4075,-0.44489 -11.4075,-0.44489 0,0 -11.02725,0.86697 -11.02725,0.86697 0,0 -4.94325,0.61601 -4.94325,0.61601 0,0 -6.46425,-0.72248 -6.46425,-0.72248 0,0 -11.02725,0.82514 -11.02725,0.82514 -1.55903,0.1483 -2.06856,0.36885 -3.8025,0.3004 0,0 -7.98525,-1.15216 -7.98525,-1.15216 0,0 -6.084,0 -6.084,0 -1.65789,0.17491 -2.93553,0.69966 -4.563,0 -1.41072,-0.77951 -3.76448,-3.34239 -3.947,-4.91663 -0.18631,-0.6084 0,-1.64268 0,-2.2815 0.19013,-0.7567 0.19394,-1.42213 0.7529,-2.01532 1.00767,-1.07231 7.27038,-3.05721 8.89785,-3.30818 0.37264,-3.52872 2.51725,-6.00415 5.70375,-7.43769 2.17123,-0.97344 5.60488,-1.65789 7.98525,-1.60465 1.75675,-0.0533 3.11044,0.59698 4.94325,0 1.8214,-0.49433 5.30068,-3.11805 7.22475,-4.14473 1.33848,-0.71487 2.8861,-1.04569 3.68842,-2.44501 0,0 2.42981,-7.01942 2.42981,-7.01942 1.29285,-1.63126 5.31208,0.44109 5.08393,-2.82525 -0.15589,-2.22066 -3.8101,-3.62379 -5.49841,-4.563 1.65409,-2.72259 4.32724,-1.78338 7.22475,-1.90125 0.33843,-2.37657 1.07991,-4.35766 2.22826,-6.46425 0.79853,-1.46016 2.28531,-3.68463 2.40318,-5.3235 0.0951,-1.28524 -0.76429,-4.62384 -1.05709,-6.084 -1.09131,-5.40336 -1.6731,-6.39961 -1.6731,-12.168 3.00397,0 7.22095,-0.0722 9.2857,-2.74161 1.06091,-1.37269 0.97344,-3.95839 0.98105,-5.62389 0.0191,-3.6504 0.67305,-2.99637 1.07611,-5.70375 0,0 1.23962,-11.78775 1.23962,-11.78775 0,0 1.47537,-16.35075 1.47537,-16.35075 0.18252,-3.51732 -0.36885,-2.98116 -0.28899,-5.3235 0,0 0.74148,-6.8445 0.74148,-6.8445 0,0 0,-4.18275 0,-4.18275 0,0 0.71868,-2.66175 0.71868,-2.66175 0,0 0,-3.42225 0,-3.42225 0,0 0.85936,-5.70375 0.85936,-5.70375 0,0 -3.24733,-9.8865 -3.24733,-9.8865 -0.56658,-2.47543 0.74148,-2.77582 -0.84797,-6.8445 0,0 -2.65794,-5.70375 -2.65794,-5.70375 -0.66924,-1.88985 -0.83275,-4.46413 -1.20159,-6.46424 -0.19012,-1.01526 -0.77952,-2.95074 -0.74149,-3.8025 0,0 1.11033,-6.084 1.11033,-6.084 0.86317,-2.01912 3.16749,-4.72271 4.57441,-6.46425 0,0 3.63519,-5.21703 3.63519,-5.21703 2.38416,-3.15987 3.17508,-3.20931 5.01549,-7.33122 0,0 3.41846,-7.22475 3.41846,-7.22475 0,0 2.30811,-6.8445 2.30811,-6.8445 0,0 7.03083,-15.9705 7.03083,-15.9705 0,0 3.04579,-6.8445 3.04579,-6.8445 0,0 3.05721,-4.94325 3.05721,-4.94325 0,0 4.67328,-10.647 4.67328,-10.647 0,0 2.33853,-4.01544 2.33853,-4.01544 0.41448,-1.44495 -1.71492,-2.26248 -2.73019,-2.70357 -2.4336,-1.0571 -3.26634,-1.98491 -2.20164,-4.68849 1.81759,-4.60482 4.23978,-2.5971 6.76464,-3.86714 2.40318,-1.20919 3.42225,-4.06488 5.06493,-6.00415 0.98485,-1.16357 2.15982,-1.80999 2.30052,-3.44126 0.0684,-0.75289 -0.1445,-3.0496 -0.52856,-3.66942 -1.14075,-1.8366 -4.89001,-2.20164 -6.83689,-1.91646 -1.9773,0.28899 -3.51351,1.39172 -4.73031,0.30041 -0.98484,-0.87839 -0.80613,-2.66556 -0.62741,-3.83673 0,0 0,-3.8025 0,-3.8025 0,0 0.41447,-3.8025 0.41447,-3.8025 0.0229,-2.02673 -0.68064,-5.69615 1.90885,-6.28553 1.45256,-0.33082 4.05347,1.01147 5.69615,1.21299 0.9202,0.11022 2.02674,0.038 2.25489,-1.06849 0.35362,-1.68071 -2.35376,-5.16 -3.81011,-5.81403 -0.9012,-0.40686 -3.0306,-0.38405 -3.14086,-2.1332 -0.0989,-1.63128 1.78336,-3.21312 2.41078,-4.54399 0.55517,-1.16736 0.38786,-3.59336 0.38405,-4.94325 -0.0105,-7.66964 -1.46777,-8.46437 -3.71124,-14.82975 0,0 -1.08371,-4.563 -1.08371,-4.563 0,0 -1.40313,-3.42225 -1.40313,-3.42225 -0.88978,-3.31578 -0.65022,-6.86732 -0.64642,-10.26675 0,0 1.28905,-12.168 1.28905,-12.168 0.11408,-1.85942 0.49812,-4.23978 0,-6.084 -0.95062,-4.60863 -7.4491,-8.28945 -11.5558,-9.86369 -1.23201,-0.4677 -4.66187,-1.3689 -5.42237,-2.19024 -0.68824,-0.74148 -0.65022,-1.8328 -0.66163,-2.77582 0,0 0.38025,-7.22475 0.38025,-7.22475 -4.69989,0 -6.16005,-0.1559 -10.647,-1.78337 -4.60103,-1.6731 -8.14496,-3.91278 -13.30875,-4.26641 -3.90516,-0.26618 -9.7458,1.30807 -13.689,2.09518 0,0 -6.084,0.89739 -6.084,0.89739 0,0 -4.563,0 -4.563,0 0,0 -2.66175,0.75289 -2.66175,0.75289 0,0 -2.66175,0 -2.66175,0 0,0 -4.563,0.46011 -4.563,0.46011 -1.521,0.19013 -3.01919,0.69966 -4.563,0.58178 0,0 -9.50625,-1.33467 -9.50625,-1.33467 0,0 -7.605,-0.73389 -7.605,-0.73389 0,0 -6.46425,-2.118 -6.46425,-2.118 -4.39188,-1.43354 -10.99683,-3.01538 -15.59025,-2.91271 -2.77962,0.0647 -4.63905,0.79092 -7.22475,1.32327 0,0 -3.8025,0.38025 -3.8025,0.38025 -2.88609,0.18252 -7.1411,-0.69206 -9.50625,-2.38797 -0.88979,-0.63502 -2.08377,-1.61606 -2.31192,-2.7416 -0.18252,-0.905 1.26624,-5.18281 1.54762,-6.46425 1.25483,-5.70755 1.8366,-8.17538 1.90505,-14.06925 0.0229,-1.83281 1.09512,-7.93962 1.76436,-9.50625 0.57418,-1.34989 2.98497,-4.36907 3.98883,-5.70375 0,0 7.03462,-9.50625 7.03462,-9.50625 0,0 7.20573,-9.8865 7.20573,-9.8865 0,0 3.54393,-4.924239 3.54393,-4.924239 0,0 3.023,-3.080025 3.023,-3.080025 0,0 5.44518,-6.825487 5.44518,-6.825487 0,0 12.86385,-12.202223 12.86385,-12.202223 0,0 7.97004,-7.844557 7.97004,-7.844557 4.76454,-4.391888 3.37282,-5.327303 5.7684,-8.47197 3.90136,-5.118165 3.02298,-3.137063 7.55556,-5.836838 1.29285,-0.771907 2.43741,-2.072362 3.8025,-2.467822 0,0 5.70375,0 5.70375,0 7.17151,-0.144495 14.93242,-3.935588 22.0545,-4.893818 0,0 5.70375,-0.475312 5.70375,-0.475312 0,0 4.94325,0.437287 4.94325,0.437287 1.6807,-0.133087 2.71879,-1.159762 4.563,-0.920205 1.02667,0.133088 2.02674,0.707265 3.42225,0.718673 1.55523,0.01217 4.5516,-0.889785 6.084,-1.391715 2.45262,3.258742 6.71902,4.38048 10.647,4.563 -0.60459,-1.04949 -2.40318,-3.205508 -2.38037,-4.18275 0.0608,-2.353748 4.07249,-3.33099 4.49076,-4.977473 0.22434,-0.88218 -0.94683,-2.483032 -1.34989,-3.388027 0,0 -8.3655,5.3235 -8.3655,5.3235 1.33848,-3.369015 2.45641,-3.418448 5.3235,-5.179005 0.73008,-0.444893 1.91646,-1.319468 2.66175,-1.56663 0,0 6.46425,-1.239615 6.46425,-1.239615 0,0 -5.70375,-6.084 -5.70375,-6.084 3.73405,0.585585 4.51357,2.133202 7.605,3.388027 2.23207,0.904995 3.38803,0.794723 5.70375,0.794723 -0.25097,-4.251195 -2.66936,-3.31578 -6.084,-4.563 1.94308,-3.631388 5.07253,-0.372645 7.605,0.7605 0.40306,-1.654088 0.1407,-4.099095 2.2891,-4.48695 0.49433,-0.09126 0.9012,-0.07605 1.32327,0.220545 0,0 2.47163,4.266405 2.47163,4.266405 0,0 1.76817,-7.916805 1.76817,-7.916805 1.16356,-2.262488 5.44518,-3.829118 7.73808,-2.730195 -2.7302,1.270035 -5.15619,2.034337 -6.67719,4.94325 -0.43349,0.825142 -1.27004,3.311977 0.26998,3.566745 1.11033,0.18252 2.20164,-1.665495 2.76441,-2.425995 1.61607,-2.163623 2.50586,-3.07242 5.1638,-1.90125 1.25482,-2.505848 3.85573,-3.186495 6.46425,-2.41839 1.52481,0.452497 2.01153,1.239615 3.8025,1.148355 3.50211,-0.174915 10.6356,-2.802443 12.71556,-5.608688 0.66163,-0.89739 1.34229,-3.3538051 1.73394,-4.5287771 z m 1.90125,7.9852501 c -0.77951,-0.201533 -2.24727,-0.733883 -2.99256,-0.600795 -1.45256,0.25857 -2.71499,3.4983 -3.09144,4.783545 2.44501,-0.695858 4.93185,-1.80999 6.084,-4.18275 z m -5.70375,0 c -2.42219,0.570375 -4.12191,1.114132 -4.563,3.8025 2.73019,-0.4563 3.44127,-1.346085 4.563,-3.8025 z m -20.5335,6.46425 c 0.95443,-0.0082 1.72254,0.01895 2.66175,-0.239558 0,0 1.89364,-0.764302 1.89364,-0.764302 3.1827,-1.58184 1.43355,-3.616178 -0.37264,-3.836723 -1.54001,-0.186322 -3.10284,0.847958 -3.7949,2.186438 -0.42967,0.832747 -0.37644,1.74915 -0.38785,2.654145 z m 12.9285,-3.8025 c 0,0 -2.2815,0 -2.2815,0 0.3004,1.768162 0.64263,1.996312 2.2815,2.66175 0,0 0,-2.66175 0,-2.66175 z m 17.11125,0.38025 c 0,0 -3.42225,-0.38025 -3.42225,-0.38025 0,0 -2.2815,4.18275 -2.2815,4.18275 2.42599,-1.045688 4.06107,-1.635075 5.70375,-3.8025 z m 4.18275,-0.38025 c 0,0 -1.14075,0 -1.14075,0 0,0 0,1.14075 0,1.14075 0,0 1.14075,0 1.14075,0 0,0 0,-1.14075 0,-1.14075 z m -35.36325,1.14075 c -2.31572,0.269977 -3.15227,1.106527 -3.42225,3.42225 2.19784,-0.479115 2.75301,-1.330875 3.42225,-3.42225 z m 11.02725,1.521 c -1.25862,-1.650285 -2.1218,-0.935415 -2.66175,0.7605 0,0 2.66175,-0.7605 2.66175,-0.7605 z m 5.3235,0 c 0,0 -1.90125,0 -1.90125,0 0,0 0,0.7605 0,0.7605 0,0 1.90125,0 1.90125,0 0,0 0,-0.7605 0,-0.7605 z m 7.98525,0 c 0,0 -1.14075,0 -1.14075,0 0,0 0.38025,1.521 0.38025,1.521 0,0 0.7605,-1.521 0.7605,-1.521 z m 12.54825,0.7605 c 0,0 -4.94325,-0.38025 -4.94325,-0.38025 1.41834,1.927867 4.27782,4.24359 4.94325,0.38025 z m 4.563,-0.38025 c 0,0 -1.90125,0 -1.90125,0 0,0 1.14075,1.521 1.14075,1.521 0,0 0.7605,-1.521 0.7605,-1.521 z m -9.50625,2.66175 c -0.28518,-0.513338 -0.47912,-0.977243 -0.9164,-1.39932 -2.20545,-2.1294 -3.68082,1.669297 -0.597,1.695915 0.6084,0.0047 0.95444,-0.144495 1.5134,-0.296595 z m -46.01025,4.94325 c 3.60097,-1.270035 1.9849,-4.490753 -0.7605,-5.3235 0,0 0.7605,5.3235 0.7605,5.3235 z m 66.54375,-1.14075 c -0.62741,-1.87083 -1.33848,-1.74915 -3.042,-1.14075 0.99625,1.330875 1.46016,1.121737 3.042,1.14075 z m -4.563,1.521 c -3.04961,-0.688253 -3.33099,-1.144553 -6.46425,0 1.56283,2.574292 4.95466,2.5857 6.46425,0 z m -63.50175,0.38025 c 0,0 -1.521,0 -1.521,0 0,0 0,1.90125 0,1.90125 1.30045,-0.4563 1.28524,-0.555165 1.521,-1.90125 z m 74.14875,0.38025 c 0,0 -6.8445,0 -6.8445,0 1.65789,1.741545 2.1256,1.197787 4.18275,1.730137 0,0 2.66175,0.931613 2.66175,0.931613 0,0 0,-2.66175 0,-2.66175 z m -77.571,2.2815 c 0,0 -3.042,-0.38025 -3.042,-0.38025 0.58179,1.912657 1.11033,2.125597 3.042,2.2815 0,0 0,-1.90125 0,-1.90125 z m -3.8025,2.66175 c -1.31567,-2.460218 -3.46788,-2.17503 -5.70375,-1.14075 1.17877,2.091375 3.66561,1.71873 5.70375,1.14075 z m 70.7265,-0.38025 c -1.16736,0.406867 -1.11413,0.353632 -1.521,1.521 1.12554,-0.452498 1.11033,-0.376448 1.521,-1.521 z m -73.38825,2.66175 c 0.13309,0.505732 0.20914,0.977242 0.49432,1.433542 2.23208,3.60477 4.93565,-2.627527 1.01907,-2.015325 -0.56277,0.0874 -1.00765,0.34983 -1.51339,0.581783 z m 1.14075,6.46425 c -0.0105,-0.82134 0.0608,-1.760558 -0.38405,-2.490638 -2.67316,-4.384282 -10.05381,-0.931612 -6.30075,3.593363 0.47532,0.570375 1.07991,1.04949 1.74155,1.387912 1.0533,0.53235 1.90506,0.524745 3.042,0.551363 0,0 -1.14075,-2.2815 -1.14075,-2.2815 0,0 3.042,-0.7605 3.042,-0.7605 z m 75.2895,-3.042 c 0,0 -3.42225,-1.521 -3.42225,-1.521 0.0105,3.091432 0.86697,4.677075 3.42225,1.521 z m -122.06025,4.563 c 0,0 -1.14075,0 -1.14075,0 0,0 0,1.14075 0,1.14075 0,0 1.14075,0 1.14075,0 0,0 0,-1.14075 0,-1.14075 z m 137.6505,17.4915 c -1.6655,-3.486893 -7.07265,-5.395748 -8.3655,-1.14075 2.86329,1.205392 5.25505,2.02293 8.3655,1.14075 z m -93.92175,6.084 c 0.2928,-1.083713 1.17117,-3.144668 0.98485,-4.144725 -0.36124,-1.939275 -3.54013,-2.608515 -5.1676,-2.699775 0.70347,2.019127 2.80245,6.6924 2.47923,8.73054 -0.32702,2.041942 -3.87095,3.471682 -6.66198,1.882237 -1.90886,-1.083712 -3.82532,-3.51351 -5.10296,-5.289277 -0.58938,-0.817538 -1.70731,-2.578095 -2.57049,-3.000173 -1.31566,-0.642622 -6.32736,0.939218 -7.9168,1.33848 -0.97724,0.24336 -4.01544,0.779513 -4.55159,1.501988 -0.82515,1.11033 0.2966,3.905167 1.31567,4.604827 0,0 5.13717,1.760558 5.13717,1.760558 4.29303,2.041942 7.99285,5.90148 4.4071,10.517715 -0.41067,0.524745 -1.10272,1.224405 -1.68451,1.55142 -1.2206,0.692055 -2.39177,-0.129285 -3.48309,-0.73008 0,0 -6.8445,-4.251195 -6.8445,-4.251195 -1.73013,-1.228208 -5.45658,-4.82157 -6.8445,-5.350118 -1.27004,-0.482917 -4.23218,-0.33462 -5.70375,-0.338422 -2.11419,-0.0047 -5.22083,-0.296595 -7.22475,-0.92781 -3.21692,-1.015268 -3.3576,-4.072478 -5.70375,-4.038255 -1.84041,0.02282 -3.46788,2.095177 -4.38809,3.45267 0,0 -3.62377,4.555395 -3.62377,4.555395 0,0 -2.11419,3.235927 -2.11419,3.235927 -0.8936,0.904995 -3.0306,1.570433 -4.15994,2.699775 -0.84036,0.83655 -0.84796,1.58184 -1.79859,2.810048 -2.77962,3.608572 -4.22077,4.66947 -6.23229,9.126 -2.40699,5.334911 -1.89364,9.300911 -2.88229,11.407501 0,0 -2.06096,3.42225 -2.06096,3.42225 0,0 -5.03451,9.8865 -5.03451,9.8865 0,0 -1.92787,6.8445 -1.92787,6.8445 3.58195,-0.50573 8.14116,-2.31952 11.4075,-3.90137 2.20926,-1.0685 4.07248,-2.37276 6.46425,-2.98116 8.68491,-2.22446 21.42328,-2.42599 29.27925,-6.35397 1.09893,-0.54756 2.82526,-1.59325 3.65421,-2.47543 1.73394,-1.84421 4.2588,-7.81034 8.24001,-10.62419 1.17877,-0.83274 6.8445,-1.64268 8.63928,-2.049544 8.54802,-1.93167 14.73469,-3.175087 23.5755,-3.175087 0,0 -3.042,-3.042 -3.042,-3.042 3.00778,0.02668 3.71505,0.42588 6.46425,1.521 0,0 2.2815,-6.084 2.2815,-6.084 -1.65789,-0.444893 -3.23973,-0.771908 -4.18275,-2.2815 0,0 6.084,1.521 6.084,1.521 0,0 -0.38025,-2.66175 -0.38025,-2.66175 3.12946,-0.186323 2.66175,-0.89739 2.66175,-5.3235 -5.11817,0.916402 -5.4756,-0.376448 -8.3655,-4.18275 -1.98491,4.064872 -4.20557,5.114362 -2.66175,9.8865 -5.01549,-2.47923 0.60079,-8.141153 1.74535,-10.647 0.51714,-1.136948 0.50573,-1.836608 0.53615,-3.042 -2.9013,0.859365 -2.1294,2.05335 -4.94325,4.18275 0.48292,-4.171343 3.25494,-3.540128 3.8025,-6.8445 0,0 -1.90125,0 -1.90125,0 z m 96.20325,-4.94325 c 0,0 -0.7605,0 -0.7605,0 0,0 0.38025,1.521 0.38025,1.521 0,0 0.38025,-1.521 0.38025,-1.521 z m -16.35075,2.66175 c 0,0 -1.521,0 -1.521,0 0,0 0,2.2815 0,2.2815 1.17498,-0.737685 1.16737,-0.962033 1.521,-2.2815 z m 22.0545,1.14075 c 0,0 -5.3235,-1.14075 -5.3235,-1.14075 0,0 0,1.90125 0,1.90125 1.91646,0.0874 4.08388,1.01907 5.3235,-0.7605 z m -12.54825,0.7605 c -1.41453,3.608572 2.07237,6.331162 5.3235,6.8445 -1.19399,-4.00023 -1.74534,-4.68468 -5.3235,-6.8445 z m -9.50625,1.14075 c 0,0 -1.521,0 -1.521,0 0,0 0,1.90125 0,1.90125 1.30045,-0.4563 1.28524,-0.555165 1.521,-1.90125 z m 3.8025,1.300455 c -1.92026,0.41067 -4.32344,1.775767 -4.35386,4.023045 -0.0228,1.521 1.68071,6.110617 4.35386,5.38434 2.7454,-0.749093 4.76833,-6.26652 3.78729,-7.916805 -0.74148,-1.24722 -2.48303,-1.486778 -3.78729,-1.49058 z m -70.7265,16.191045 c 0,0 -1.14075,0 -1.14075,0 0,0 -3.42225,3.8025 -3.42225,3.8025 1.14075,0 4.20937,0.250965 4.77975,-0.94302 0.25857,-0.543758 -0.13689,-2.17503 -0.21675,-2.85948 z m 2.2815,9.468225 c -0.008,-0.756698 0.0304,-1.851818 -0.28139,-2.5857 -1.12554,-2.66175 -5.50981,-2.14461 -6.70761,-0.642623 -1.35748,1.70352 1.34229,3.292965 2.80625,3.228323 0,0 1.90125,0 1.90125,0 0,0 2.2815,0 2.2815,0 z m -34.983,66.962026 c -0.038,-1.49058 -0.0761,-2.85568 -1.28904,-3.93559 -1.8062,-1.60846 -5.70375,-1.64268 -6.69621,1.65409 3.08002,1.30426 4.53639,2.20545 7.98525,2.2815 z m 148.67775,165.40875 c 2.15602,-1.01907 3.46027,-2.82906 5.3235,-4.30823 0,0 7.28179,-4.96606 7.28179,-4.96606 1.34988,-1.73775 1.65408,-4.61244 1.89365,-6.69621 0,0 0.68824,-3.042 0.68824,-3.042 0,0 0,-10.647 0,-10.647 0.0152,-4.2512 -1.70731,-7.62021 -3.48309,-11.4075 0,0 -4.94325,-10.647 -4.94325,-10.647 -2.50965,-5.31209 -4.74171,-11.38088 -6.04216,-17.11125 0,0 -1.18638,-6.084 -1.18638,-6.084 -1.09512,-4.62764 -2.25108,-6.82548 -2.19405,-11.78775 0.057,-4.59722 3.69603,-10.4949 3.68463,-13.30875 0,0 -2.58951,-7.22475 -2.58951,-7.22475 -0.87458,-2.82525 -1.76055,-6.29313 -4.89762,-7.22475 -2.37276,8.19439 -5.09915,20.16466 -3.042,28.51875 -0.924,0.86317 -0.6122,1.48297 -0.38025,2.66175 0,0 1.34989,6.80268 1.34989,6.80268 0.69966,2.12559 2.99637,1.44114 4.61624,2.95074 0.96583,0.89739 0.87076,1.96588 0.87837,3.17508 0,0 1.30045,14.06925 1.30045,14.06925 0.1445,1.04188 0.905,6.11442 0.68826,6.75705 -0.39166,1.17877 -1.73394,1.16736 -2.74921,1.2282 0.26238,5.67714 3.17509,10.27435 3.0382,16.35075 -0.11407,4.8672 -2.50204,5.65812 -2.95834,8.74575 -0.41828,2.82906 1.8328,10.81812 2.42218,14.06925 0.55517,3.08383 0.21294,6.21328 1.30046,9.126 z m -77.19075,16.35075 c 0,0 -0.7605,0 -0.7605,0 0,0 -0.38025,1.90125 -0.38025,1.90125 0,0 1.14075,0 1.14075,0 0,0 0,-1.90125 0,-1.90125 z m 11.02725,2.66175 c 0,0 -1.521,0 -1.521,0 0,0 0,1.521 0,1.521 1.16737,-0.40686 1.11414,-0.35363 1.521,-1.521 z m -2.36895,8.3655 c 0.45249,-0.21294 0.77571,-0.33081 1.10272,-0.63882 1.71113,-1.61987 -0.97725,-2.56668 -1.10272,-0.47912 -0.1407,0.50193 0.0105,0.7491 0,1.11794 z m -3.3348,-1.90125 c -0.47531,0.20533 -0.95442,0.34983 -1.35749,0.69966 -2.44881,2.10279 1.76816,3.9508 1.65029,0.80613 -0.019,-0.51714 -0.17492,-1.00766 -0.2928,-1.50579 z m 68.82525,35.74349 c 0.88218,-0.3004 5.11437,-2.83666 5.49081,-3.54011 0,0 1.12554,-5.58588 1.12554,-5.58588 0.27759,-1.39172 0.98104,-3.63138 0.57798,-4.94325 -0.57798,-1.87844 -3.08382,-4.08389 -3.09903,-6.084 0,0 0.88218,-3.42225 0.88218,-3.42225 0.35362,-1.47537 0.66924,-7.40346 0,-8.57844 -0.69587,-1.11033 -1.91267,-1.6731 -3.07623,-2.06856 0,0 -0.7605,9.126 -0.7605,9.126 0,0 -0.38025,11.02725 -0.38025,11.02725 0,0 -0.38025,4.563 -0.38025,4.563 0,0 0,4.18275 0,4.18275 0,0 -0.38025,5.32349 -0.38025,5.32349 z m -68.445,-31.18049 c -2.1408,2.52486 -3.35381,1.90125 -6.46425,1.90125 0.3118,3.8101 0.69586,6.07639 4.94325,6.46425 0.11021,1.32708 0.0105,1.52481 1.14075,2.2815 0.0304,-3.56675 1.57423,-7.16391 0.38025,-10.647 z m 4.18275,0 c 0,0 -0.7605,0 -0.7605,0 0,0 -0.7605,1.90125 -0.7605,1.90125 0,0 1.521,0.38025 1.521,0.38025 0,0 0,-2.2815 0,-2.2815 z m -15.9705,1.14075 c -2.06475,0.0684 -2.40698,0.1521 -2.66175,2.2815 0,0 2.66175,0 2.66175,0 0,0 0,-2.2815 0,-2.2815 z m 18.252,2.66175 c 0,0 -1.521,0 -1.521,0 0,0 -1.14075,4.563 -1.14075,4.563 2.17123,-1.09131 2.34234,-2.30432 2.66175,-4.563 z m -21.294,1.90125 c -2.97356,0.97725 -1.8176,2.93934 -2.23587,4.54779 -0.35363,1.36129 -3.84813,3.59337 -0.41067,5.06113 0,0 1.12554,0.27758 1.12554,0.27758 0,0 1.20919,-2.2815 1.20919,-2.2815 0,0 0,-3.42225 0,-3.42225 0,0 0.31181,-4.18275 0.31181,-4.18275 z m 8.3655,4.563 c -0.0723,-2.10278 -0.20534,-2.68836 -2.2815,-3.42225 0.12168,2.04195 0.26998,2.69598 2.2815,3.42225 z m -1.14075,3.42225 c -2.22446,0.26617 -3.01538,1.39552 -0.7605,2.66175 0,0 0.7605,-2.66175 0.7605,-2.66175 z m 93.16125,15.20999 c 0.9088,-0.14449 2.04955,-0.25856 2.68077,-1.02667 0.50193,-0.61219 0.7681,-2.65033 1.03428,-3.53632 0,0 2.07996,-5.70375 2.07996,-5.70375 0.24336,-0.90879 0.87457,-3.51731 0.28899,-4.28162 -1.71492,-2.22826 -3.8025,3.28157 -4.23218,4.28162 -0.58939,1.37271 -0.96964,2.7378 -1.33087,4.18275 -0.65784,2.66175 -0.52095,3.41845 -0.52095,6.08399 z"
     style="fill:#000000;stroke:none" />
</svg>
