<?xml version="1.0" encoding="UTF-8" standalone="no"?>
<svg
   xmlns:dc="http://purl.org/dc/elements/1.1/"
   xmlns:cc="http://creativecommons.org/ns#"
   xmlns:rdf="http://www.w3.org/1999/02/22-rdf-syntax-ns#"
   xmlns:svg="http://www.w3.org/2000/svg"
   xmlns="http://www.w3.org/2000/svg"
   xmlns:sodipodi="http://sodipodi.sourceforge.net/DTD/sodipodi-0.dtd"
   xmlns:inkscape="http://www.inkscape.org/namespaces/inkscape"
   width="100mm"
   height="100mm"
   viewBox="0 0 566.89976 566.89931"
   version="1.1"
   id="svg1702"
   sodipodi:docname="nitouche.svg"
   inkscape:version="1.0.1 (3bc2e813f5, 2020-09-07)">
  <metadata
     id="metadata1708">
    <rdf:RDF>
      <cc:Work
         rdf:about="">
        <dc:format>image/svg+xml</dc:format>
        <dc:type
           rdf:resource="http://purl.org/dc/dcmitype/StillImage" />
        <dc:title></dc:title>
      </cc:Work>
    </rdf:RDF>
  </metadata>
  <defs
     id="defs1706" />
  <sodipodi:namedview
     pagecolor="#ffffff"
     bordercolor="#666666"
     borderopacity="1"
     objecttolerance="10"
     gridtolerance="10"
     guidetolerance="10"
     inkscape:pageopacity="0"
     inkscape:pageshadow="2"
     inkscape:window-width="3840"
     inkscape:window-height="2066"
     id="namedview1704"
     showgrid="false"
     inkscape:zoom="1.9575466"
     inkscape:cx="779.10221"
     inkscape:cy="281.62007"
     inkscape:window-x="-11"
     inkscape:window-y="-11"
     inkscape:window-maximized="1"
     inkscape:current-layer="svg1702"
     inkscape:document-rotation="0" />
  <path
     id="Sélection"
     fill="none"
     stroke="#000000"
     stroke-width="0.59049"
     d="m 225.69852,131.11896 c -4.35782,-3.30084 -4.83611,-6.90283 -6.33006,-11.8098 0,0 -2.88749,-7.67637 -2.88749,-7.67637 -0.75583,-3.56656 1.00974,-8.21963 2.88159,-11.21931 3.24769,-5.202223 9.11126,-8.296387 10.45757,-10.729204 1.37585,-2.491866 -0.37791,-5.710041 1.78919,-9.347454 2.26158,-3.802761 6.87921,-6.135192 7.90667,-8.863263 0,0 1.2164,-10.032417 1.2164,-10.032417 1.35222,-7.062264 4.80069,-12.937644 10.3572,-17.519841 6.33005,-5.219937 13.57537,-4.481829 17.11239,-6.141105 2.60998,-1.222317 3.02922,-2.775303 4.85974,-4.115718 1.88367,-1.375839 5.81042,-2.432817 8.14286,-2.751678 5.00144,-0.690876 12.01056,1.641555 15.09882,5.739561 1.88957,2.503674 1.12193,4.16295 3.34218,6.253299 2.87569,2.71035 5.99347,1.594323 7.98933,3.944466 1.78327,2.102148 4.32829,7.570089 2.06671,10.026522 -0.81488,0.885735 -2.00766,1.228221 -3.10597,1.612044 1.16326,3.100068 3.08236,9.996993 5.5447,12.057804 1.48803,1.245933 3.40122,1.080594 4.91878,1.806894 1.58842,0.767637 5.16678,4.074381 5.96985,5.627376 0.98612,1.9368 0.41925,3.560652 1.19279,5.898996 0.76764,2.320623 2.03129,3.22407 2.37377,5.9049 0.54916,4.292856 -1.24003,11.384638 7.16265,12.990778 -2.94064,5.20812 -6.23558,-0.13582 -11.35513,-1.18098 -0.10038,1.8069 -0.51372,3.4957 0,5.31441 0.89755,5.00145 5.64509,8.32591 7.78266,12.40029 2.51549,4.78888 0.065,7.84761 0.82669,10.03242 0.85031,2.46235 3.50751,2.79303 5.69823,6.5013 -3.46618,-0.19486 -9.24117,-2.49777 -9.74309,-6.49539 -0.28343,-2.25567 1.86595,-4.63535 1.09831,-7.08588 -0.86801,-2.7753 -4.222,-4.77116 -6.57215,-5.9049 0,0 0,7.67637 0,7.67637 -0.43106,2.77531 -2.90521,5.65689 -2.39739,8.26686 0.94478,4.8243 8.8042,14.75044 12.30581,18.30519 4.27515,4.32239 9.5187,8.13695 14.75635,11.2134 3.52522,2.06672 7.5937,4.51725 6.83196,9.45375 -0.28343,1.85414 -1.51755,3.28312 -1.2105,5.31441 0.25391,1.70061 1.89547,3.84409 2.82845,5.31441 1.41718,2.23795 3.60199,6.3891 4.48772,8.85735 1.71243,4.77116 0.79716,7.31026 2.93473,10.62882 1.925,2.99969 6.92646,6.84378 8.34363,10.03833 1.88957,4.24562 -2.76349,7.41655 -1.31088,11.2134 0.69086,1.7951 2.85797,3.50752 4.11571,5.34394 0,0 5.08411,7.65275 5.08411,7.65275 3.17094,4.2161 7.48152,8.95183 9.93796,13.58127 0.75582,1.41718 1.60022,3.07646 1.3404,4.72392 -0.34247,2.20253 -2.38557,3.51342 -1.41717,5.9049 0,0 3.81457,5.31441 3.81457,5.31441 1.83052,2.94654 2.84025,6.12928 5.19631,8.83373 1.97814,2.27339 5.75727,3.94447 4.91287,7.62322 -0.47829,2.06672 -3.20045,2.79893 -4.91878,1.82462 -1.91319,-1.08059 -4.31057,-6.5072 -6.9914,-3.80275 -1.70651,1.71832 -1.27546,3.6256 -0.40153,5.59784 2.26748,5.11364 3.60199,5.0605 3.66104,11.21931 0,0 -4.72392,-2.36196 -4.72392,-2.36196 0,0 0,4.72392 0,4.72392 -7.07998,-0.81487 -5.46204,-4.87745 -8.73335,-9.44784 -1.54118,-2.16119 -3.15322,-3.58427 -5.43841,-4.91288 -1.13375,-0.66135 -3.43075,-1.55889 -4.13933,-2.55091 -0.75583,-1.06879 -0.60822,-3.63151 -0.57869,-4.9365 0.15353,-6.22967 1.02745,-2.78712 0,-10.62882 0,0 -8.27276,7.9598 -8.27276,7.9598 -6.76112,5.14908 -14.90397,5.93443 -22.43862,2.07853 0,0 0.59049,12.40029 0.59049,12.40029 0,0 1.12783,13.58127 1.12783,13.58127 0,0 -0.57277,4.72392 -0.57277,4.72392 0,0 0.43696,5.31441 0.43696,5.31441 0,0 -0.99202,10.62882 -0.99202,10.62882 -0.0531,4.91878 0.17124,9.91432 -0.87393,14.76225 -0.68497,3.18274 -1.72423,3.04693 -2.4151,7.67637 0,0 -1.02155,14.17176 -1.02155,14.17176 -0.89164,6.06433 -2.80483,11.40237 -2.59815,17.7147 0,0 0,3.54294 0,3.54294 0.0413,2.88749 0.89754,4.38734 0,7.67637 0,0 -8.72745,21.84813 -8.72745,21.84813 -0.54915,3.91495 4.91288,6.51901 4.16295,11.21931 -0.40152,2.50958 -3.34807,6.78473 -4.16295,9.44784 0,0 -0.90936,7.67637 -0.90936,7.67637 0,0 -2.94063,10.03833 -2.94063,10.03833 -6.52492,3.11188 -6.48358,7.36341 -6.49539,13.58127 0,0 -0.59049,10.03833 -0.59049,10.03833 0,0 0,17.12421 0,17.12421 -0.005,4.4523 -0.79717,6.21786 -0.79717,7.67637 0,3.27722 0.73812,1.51756 0.31296,7.67637 -0.43696,6.31825 3.46618,8.75106 4.28106,10.79415 0.67315,1.68291 -0.0709,4.14525 1.01564,6.92055 1.925,4.9365 8.05429,7.90666 11.66218,11.39055 1.48803,1.4408 3.51341,4.10391 2.80482,6.32415 -0.372,1.15736 -2.99969,4.08619 -3.92675,5.45613 -8.48534,-2.59225 -11.01855,0.64954 -17.7147,0 0,0 -7.25122,-1.27546 -7.25122,-1.27546 0,0 -8.69201,1.70061 -8.69201,1.70061 -2.5273,0.10039 -5.58014,-0.13581 -7.49922,-1.99586 -1.60023,-1.54708 -2.10215,-4.69439 -2.53911,-6.83787 -0.95069,-4.66487 -2.11396,-13.07345 -1.67109,-17.7147 0.63773,-6.66072 2.72215,-8.3259 -1.87185,-11.8098 1.56479,-6.64892 5.64508,-9.09945 6.08205,-13.58127 0,0 -0.75583,-5.9049 -0.75583,-5.9049 -0.92707,-12.84316 -3.32446,-17.85051 -5.79271,-29.5245 0,0 -1.82461,-17.12421 -1.82461,-17.12421 -1.33451,-5.07821 -10.23319,-5.76318 -9.97928,-10.05014 0.0886,-1.5648 2.46825,-6.07023 3.2654,-7.66456 0,0 6.9855,-12.40029 6.9855,-12.40029 1.21641,-2.11986 2.78712,-5.23764 4.50544,-6.89102 3.3776,-3.2536 6.09976,-2.66311 8.03657,-4.08619 1.81871,-1.34631 3.7437,-5.1845 4.50544,-7.32798 6.91463,-19.33855 -5.99347,-31.58531 -10.3631,-49.01067 -2.38558,-9.48917 0.3661,-7.78266 0,-14.17176 -0.14763,-2.66311 -0.93888,-8.10743 -1.71242,-10.62882 0,0 -10.28634,30.11499 -10.28634,30.11499 0,0 -6.12338,12.99078 -6.12338,12.99078 -0.17124,1.19279 -0.124,2.88159 0,4.13343 -0.1299,2.1671 -0.44877,7.68818 0.4783,9.3947 1.46441,2.69263 6.48358,4.06256 5.86946,7.72951 0,0 -3.37169,7.08588 -3.37169,7.08588 0,0 -6.90283,14.17176 -6.90283,14.17176 0,0 -4.8243,9.19983 -4.8243,9.19983 -0.28344,1.12193 0.30115,2.95836 0.32477,4.38144 0,0 -0.59049,4.72392 -0.59049,4.72392 0.10038,2.30292 2.24386,3.83228 0.496,9.44784 0,0 -5.25536,10.62882 -5.25536,10.62882 -1.43488,3.3717 -0.83849,4.61763 -1.54117,6.49539 -0.77945,2.07853 -2.70444,3.70827 -3.64923,5.9049 -1.0806,2.49777 -0.0472,3.0115 -1.97814,7.08588 0,0 -5.50927,9.44784 -5.50927,9.44784 0,0 -1.38175,4.72392 -1.38175,4.72392 0,0 -3.18865,5.31441 -3.18865,5.31441 0,0 -2.18481,6.49539 -2.18481,6.49539 -1.88957,4.18067 -3.17683,4.71801 -5.08412,10.62882 -1.62975,5.04869 -1.2164,9.11126 -1.5766,10.62882 -0.46649,1.96043 -1.925,3.40122 -2.81664,5.31441 -0.89164,1.90728 -1.54708,5.55651 -1.67109,7.67637 -0.26572,4.71211 1.74195,6.33006 1.47032,9.44784 -0.37201,4.32829 -3.14141,5.77499 -3.29493,11.8098 0,0 -4.13343,0.79716 -4.13343,0.79716 -2.86979,0.93888 -2.01357,1.49394 -5.9049,1.5648 0,0 -11.8098,0 -11.8098,0 -3.87362,-0.005 -7.73542,-0.39563 -11.21931,-2.25567 -1.57071,-0.8444 -3.54884,-2.16119 -3.10598,-4.23972 0.31296,-1.4467 2.8934,-4.05666 3.92676,-5.31441 2.76939,-3.37761 5.28488,-6.94416 7.62913,-10.62882 1.04516,-1.65337 4.06257,-7.13902 4.48772,-8.85735 0.49011,-1.94861 -0.30114,-2.6572 0.43696,-4.72392 0.68498,-1.90138 2.66902,-3.86181 4.84202,-11.8098 0,0 4.36372,-21.25764 4.36372,-21.25764 0,0 2.45645,-7.67637 2.45645,-7.67637 0,0 3.10597,-21.25764 3.10597,-21.25764 0.1299,-2.30882 -0.64954,-2.97017 -0.56096,-4.72392 0,0 0.7322,-4.13343 0.7322,-4.13343 0,0 0.79717,-15.35274 0.79717,-15.35274 0,0 7.39883,-23.6196 7.39883,-23.6196 1.03927,-4.39325 -1.05697,-5.56242 -0.86212,-9.44784 0.25983,-5.19631 2.65721,-8.49124 2.82255,-10.62882 0.248,-3.18274 -4.31648,-14.75634 -5.65099,-18.30519 -0.62592,-1.64746 -2.00767,-4.80069 -1.83052,-6.49539 0.69087,-6.47177 7.51104,-0.90936 9.9911,-3.34808 0.95068,-0.93888 0.93296,-2.49777 0.93888,-3.7378 0,0 -0.58459,-10.03833 -0.58459,-10.03833 0,0 -2.26158,-23.02911 -2.26158,-23.02911 0,0 -0.70859,-24.21009 -0.70859,-24.21009 0.0413,-1.60023 0.52554,-4.55268 0,-5.85176 -2.20253,-5.11954 -13.67574,-4.13343 -18.28747,-4.18657 -4.0921,-0.0472 -10.30406,-0.65545 -13.58127,-3.18274 -1.71833,-1.3286 -6.41863,-7.3516 -8.21372,-7.07997 -1.90138,0.28343 -3.11778,3.90904 -3.33627,5.53879 -0.37791,1.78328 -0.43105,9.01088 0,10.62882 0.79717,2.35015 2.62177,3.54294 2.6454,7.08588 0.005,1.2105 -0.54325,5.1904 -2.63359,4.03305 -1.35222,-0.74402 -1.38765,-3.29494 -1.4526,-4.62354 -6.43044,4.87154 -3.61381,9.36517 -12.4003,11.21931 0,0 0,-8.26686 0,-8.26686 -1.2046,2.25567 -1.66518,2.42101 -4.13343,2.95245 0.0531,-5.77499 0.95069,-10.71149 -2.50958,-15.94323 -0.96841,-1.47032 -2.70444,-3.77323 -4.5763,-3.99762 -1.58251,-0.18895 -4.13343,1.77738 -9.44784,2.22615 1.62385,-10.33948 11.06579,-13.66984 18.89568,-18.71262 2.70445,-1.74195 7.37522,-4.79479 8.50307,-7.85943 0.50781,-1.36994 0.33066,-6.65482 2.22023,-9.98519 0.85622,-1.51165 2.1612,-2.32653 3.20046,-3.64922 1.35812,-1.72424 1.28727,-2.82254 2.78712,-4.36963 1.47622,-1.52346 2.45643,-1.70061 4.08028,-3.86771 0,0 5.46793,-10.58158 5.46793,-10.58158 1.77738,-2.74578 4.23382,-3.98581 5.07822,-6.51901 2.37377,-7.12131 -11.13073,-9.83166 -6.70206,-18.88977 1.46442,-2.99379 7.42246,-6.82017 10.20367,-9.47737 6.30643,-6.0289 11.01263,-12.0519 14.5792,-20.05304 1.77147,-3.9799 0.98021,-4.60582 2.01357,-7.67637 1.54708,-4.58811 3.90314,-5.14908 2.34424,-9.45375 -1.42899,-3.96809 -4.06848,-8.27276 -6.3832,-11.80389 -0.77944,-1.18689 -2.36196,-2.99378 -1.44079,-4.47001 1.13374,-1.8069 4.76526,-1.3286 6.60168,-1.48803 2.5332,-0.22439 3.33626,-0.82078 5.31441,-2.30882 z m 78.53517,-76.173208 c 0,0 -1.18098,0 -1.18098,0 0,0 -0.59049,1.77147 -0.59049,1.77147 0,0 1.77147,-1.77147 1.77147,-1.77147 z m 15.94323,25.98156 c -1.70061,-3.519324 -4.31058,-5.780898 -8.26686,-5.9049 1.80689,4.446387 3.55475,5.420691 8.26686,5.9049 z m 1.77147,14.76225 c 2.99968,-2.09034 2.24977,-6.755211 -1.77147,-8.26686 0,0 1.77147,8.26686 1.77147,8.26686 z m -86.21154,-1.77147 c -6.23558,-0.856215 -6.08205,4.653054 -4.13343,8.857348 0,0 1.18098,0 1.18098,0 0,0 2.95245,-8.857348 2.95245,-8.857348 z m 82.6686,1.18098 c 0,0 -1.77147,0 -1.77147,0 0.0827,3.289023 0.1181,4.836105 3.54294,5.904898 0,0 -1.77147,-5.904898 -1.77147,-5.904898 z m -91.52595,3.54294 c -4.22201,1.405358 -4.01533,2.178898 -5.28489,5.904898 -1.02155,3.02331 -1.12784,2.57453 -1.2105,5.9049 4.49953,-0.26572 4.73573,-1.63566 8.26686,-4.13343 0,0 -1.77147,-7.676368 -1.77147,-7.676368 z m 5.31441,10.628818 c -3.23589,2.32653 -4.64716,3.68466 -5.31441,7.67637 0,0 5.31441,-2.95245 5.31441,-2.95245 0,0 0,-4.72392 0,-4.72392 z m -3.54294,12.40029 c -0.34249,1.77738 0.18895,1.81871 1.77147,2.36196 0,0 -1.77147,-2.36196 -1.77147,-2.36196 z m 1.77147,5.31441 c 0,0 -1.77147,0 -1.77147,0 0,0 0,1.77147 0,1.77147 0,0 1.77147,0 1.77147,0 0,0 0,-1.77147 0,-1.77147 z m 6.49539,129.9078 c -3.47799,-2.98197 -4.74164,-7.79446 -0.52554,-10.89454 2.00176,-1.47623 3.60199,-0.63183 4.83612,-1.51756 0.8503,-0.6023 1.86004,-3.08826 2.45643,-4.12162 0,0 2.43873,-4.13343 2.43873,-4.13343 0.83849,-1.79509 0.81487,-2.87568 1.9368,-4.72392 0,0 3.53113,-4.72392 3.53113,-4.72392 0,0 5.0487,-7.67637 5.0487,-7.67637 2.68672,-4.34601 4.03894,-3.67875 4.70029,-5.44432 1.18098,-3.14731 -3.04102,-6.93825 -3.47799,-8.72153 -0.46648,-1.90729 1.18098,-2.73398 1.58842,-4.23972 0.50783,-1.86005 -0.79125,-3.32446 -1.92499,-4.62354 -2.66311,-3.03512 -5.47975,-6.35367 -9.38879,-7.67637 0,0 -1.16917,11.8098 -1.16917,11.8098 -0.124,1.98995 0.0177,4.71211 -1.42308,6.25329 -1.71242,1.83051 -6.53083,2.58044 -8.02476,5.09003 -1.31089,2.20252 -0.5964,10.50481 -3.63152,14.54967 -1.84233,2.46234 -3.43075,1.45261 -5.82813,2.38557 -2.23205,0.86803 -3.55476,2.63359 -4.44049,4.78888 -4.01533,9.77261 0.94478,19.37398 2.62178,28.93401 0.83259,4.77706 0.31296,12.1641 2.99969,15.94323 0,0 7.67637,-21.25764 7.67637,-21.25764 z m 82.07811,-53.1441 c -1.65928,2.85797 -1.42899,9.12897 0.89164,11.62674 0.89754,0.96841 1.48803,1.00975 2.6513,1.36404 -0.0177,-6.85559 -0.96251,-7.00321 -3.54294,-12.99078 z m 7.08588,17.12421 c -2.20844,5.57423 1.05106,9.30022 2.91702,14.17176 0,0 5.63327,18.30519 5.63327,18.30519 0,0 0.89755,5.9049 0.89755,5.9049 3.76141,-1.23412 4.51724,-6.07614 5.72185,-9.44784 0,0 3.76141,-10.62882 3.76141,-10.62882 0.51964,-1.36994 1.56481,-3.27132 1.25775,-4.72392 -0.34248,-1.63566 -1.96633,-2.76349 -2.71625,-4.72392 -0.39563,-1.03926 -0.33068,-2.39739 -0.9507,-3.19455 -0.86801,-1.09241 -4.47,-1.48213 -5.89308,-1.76556 -4.95421,-0.99203 -6.25919,-1.08651 -10.62882,-3.89724 z"
     style="fill:#000000;stroke:none" />
</svg>
