<?xml version="1.0" encoding="UTF-8" standalone="no"?>
<svg
   xmlns:dc="http://purl.org/dc/elements/1.1/"
   xmlns:cc="http://creativecommons.org/ns#"
   xmlns:rdf="http://www.w3.org/1999/02/22-rdf-syntax-ns#"
   xmlns:svg="http://www.w3.org/2000/svg"
   xmlns="http://www.w3.org/2000/svg"
   xmlns:sodipodi="http://sodipodi.sourceforge.net/DTD/sodipodi-0.dtd"
   xmlns:inkscape="http://www.inkscape.org/namespaces/inkscape"
   width="100mm"
   height="100mm"
   viewBox="0 0 566.90045 566.9"
   version="1.1"
   id="svg1806"
   sodipodi:docname="sylvain.svg"
   inkscape:version="1.0.1 (3bc2e813f5, 2020-09-07)">
  <metadata
     id="metadata1812">
    <rdf:RDF>
      <cc:Work
         rdf:about="">
        <dc:format>image/svg+xml</dc:format>
        <dc:type
           rdf:resource="http://purl.org/dc/dcmitype/StillImage" />
        <dc:title></dc:title>
      </cc:Work>
    </rdf:RDF>
  </metadata>
  <defs
     id="defs1810" />
  <sodipodi:namedview
     pagecolor="#ffffff"
     bordercolor="#666666"
     borderopacity="1"
     objecttolerance="10"
     gridtolerance="10"
     guidetolerance="10"
     inkscape:pageopacity="0"
     inkscape:pageshadow="2"
     inkscape:window-width="3840"
     inkscape:window-height="2066"
     id="namedview1808"
     showgrid="false"
     inkscape:zoom="1.8567703"
     inkscape:cx="698.56738"
     inkscape:cy="254.18319"
     inkscape:window-x="-11"
     inkscape:window-y="-11"
     inkscape:window-maximized="1"
     inkscape:current-layer="svg1806"
     inkscape:document-rotation="0" />
  <path
     id="Sélection #3"
     fill="none"
     stroke="#000000"
     stroke-width="0.81"
     d="m 351.52343,114.29881 c 0.0162,-1.4904 -0.0648,-3.3939 0.486,-4.7871 1.8306,-4.6251 7.7436,-8.0109 12.474,-8.1729 0,0 -9.72,22.68 -9.72,22.68 0,0 -4.05,-1.62 -4.05,-1.62 -2.9079,1.5795 -5.2164,3.0699 -6.1317,6.48 -1.0044,3.7179 0.3969,10.0359 5.3217,9.6066 5.7672,-0.5103 2.349,-6.2775 8.91,-8.7966 0,0 -3.24,8.1 -3.24,8.1 7.1037,-3.3372 9.0963,-8.8452 17.82,-11.34 0,0 0,3.24 0,3.24 7.9785,-3.4992 11.3076,-3.1995 19.44,-8.9424 6.6339,-4.6899 8.5212,-11.5182 17.82,-9.6876 -1.5309,8.0271 -5.4189,8.1891 -9.477,13.0329 -3.3129,3.9447 -1.1502,4.8519 -6.723,8.0271 0,0 8.1,8.91 8.1,8.91 -7.9542,2.2599 -10.4247,-2.1951 -13.77,4.05 7.8975,0.3888 14.3937,5.0625 21.87,7.29 -2.9808,5.265 -5.0301,1.8063 -8.5698,1.944 -1.3284,0.0486 -3.8232,1.5147 -5.2002,2.106 3.3372,4.131 6.9498,5.0787 12.15,5.3703 5.2974,0.2835 9.2097,-2.6487 11.34,4.3497 -5.3379,-1.296 -7.0227,-0.8505 -12.15,0.81 0,0 0,1.62 0,1.62 0,0 6.48,1.62 6.48,1.62 0,0 0.81,7.29 0.81,7.29 0,0 -13.77,-2.0493 -13.77,-2.0493 0,0 -6.48,-2.0007 -6.48,-2.0007 2.0169,12.1095 15.4629,12.5307 22.68,20.25 -7.2414,-0.6561 -11.7693,-3.6612 -17.82,-7.29 -0.1053,5.994 2.2518,3.1914 5.4756,7.4034 1.6929,2.2194 5.4675,9.3312 6.6744,12.0366 0,0 -7.29,-1.1502 -7.29,-1.1502 0,0 -4.86,0 -4.86,0 -2.7135,-0.0405 -8.0919,-2.1627 -9.8739,-4.2201 -2.1222,-2.4462 -2.9403,-8.4564 -3.0861,-11.583 0,0 -3.24,0 -3.24,0 -0.8262,0.1944 -1.5876,0.3321 -2.3247,0.7695 -6.0426,3.5721 3.0456,7.6788 4.3659,10.0197 0.9072,1.6038 2.511,8.1972 2.8188,10.2141 0,0 5.67,0.81 5.67,0.81 0,0 -2.43,4.86 -2.43,4.86 0,0 4.05,4.86 4.05,4.86 -13.0491,-0.324 -10.6191,-9.315 -25.92,-15.39 0,0 3.24,5.67 3.24,5.67 -7.2414,1.7172 -9.072,-2.916 -12.96,-1.8225 -7.3548,2.0736 -11.6316,17.3097 -7.0389,21.546 4.8114,4.4388 18.549,3.6612 24.8589,3.7665 8.6994,0.1458 7.6383,8.8857 12.9924,13.5189 3.4101,2.9565 2.4624,2.7378 5.0463,5.4594 0,0 7.0713,6.9417 7.0713,6.9417 0,0 8.3106,8.3268 8.3106,8.3268 1.3608,1.9197 2.6082,8.3187 6.3828,12.7332 0,0 11.2995,12.1176 11.2995,12.1176 1.5552,1.6119 4.3578,3.6936 4.9005,5.7753 0.6804,1.4256 0.0486,6.3099 0,8.0109 -0.8829,4.9896 -3.4425,3.888 -9.8334,9.7119 -4.0905,3.7341 -5.1678,3.7179 -7.1199,5.3946 -2.3814,2.0412 -2.8674,4.1877 -5.2002,6.642 -2.7864,2.9241 -7.1766,5.3379 -10.3599,7.8489 -2.1546,1.6929 -5.1597,4.9653 -7.29,6.0426 0,0 -7.29,1.7253 -7.29,1.7253 -3.1509,1.0773 -6.1317,3.1914 -8.91,5.022 -1.5876,1.053 -3.6045,2.1222 -4.212,3.969 -0.972,1.9521 -0.2349,5.0868 0,7.1199 0,0 3.3453,14.7177 3.3453,14.7177 0,0 3.5154,20.9223 3.5154,20.9223 0,0 5.4513,17.01 5.4513,17.01 2.2194,5.265 8.1243,8.3916 9.9873,12.96 2.4867,6.1074 -4.7466,8.1648 -3.6045,12.96 0.5184,2.187 3.7827,5.2731 5.2164,7.2819 0,0 8.667,14.5881 8.667,14.5881 1.0206,2.3085 0.6966,4.86 1.215,7.29 0,0 1.5957,5.67 1.5957,5.67 1.6929,7.5735 1.9278,11.097 6.8364,17.82 3.0375,4.1715 9.1773,9.9144 13.0167,13.77 0,0 7.4277,7.614 7.4277,7.614 2.1465,1.5147 4.0257,1.1583 6.3423,2.1141 2.3247,0.9477 4.6332,2.9403 6.3747,4.7304 1.944,1.9926 4.8924,8.3349 2.0493,10.6353 -1.2636,1.0125 -4.4064,0.8262 -5.994,0.8262 0,0 -6.48,0 -6.48,0 0,0 -21.06,-2.0979 -21.06,-2.0979 -2.1465,-0.3483 -6.9903,-0.9639 -8.667,-2.0817 -3.1266,-2.0817 -3.1752,-7.29 -4.0743,-9.5904 -1.6767,-4.2687 -3.807,-3.7341 -5.0787,-9.72 3.8637,-2.673 0.7857,-6.561 -1.1583,-9.72 -4.7223,-7.6788 -12.0366,-14.7582 -17.7876,-21.87 -7.2333,-8.9505 -11.5992,-18.2817 -11.8179,-29.97 0,0 0,-3.24 0,-3.24 -0.5346,-8.9991 -11.1132,-11.5344 -15.5682,-17.82 -3.8799,-5.4756 -4.0419,-12.0852 -5.3622,-15.39 0,0 -4.1877,-7.29 -4.1877,-7.29 0,0 -3.9042,-7.047 -3.9042,-7.047 -1.2555,-1.5228 -10.1979,-7.3062 -12.3039,-8.343 0,0 -9.1125,35.64 -9.1125,35.64 -0.5184,2.9727 -1.7901,8.5212 -1.5714,11.34 0.567,7.1361 9.9873,16.4511 9.7848,22.68 -0.2106,6.5529 -4.6899,15.3171 -6.1965,21.87 -1.5066,6.5205 0.1458,7.2981 0.4455,12.96 0,0 -0.6156,8.1 -0.6156,8.1 0.3483,4.455 1.7901,5.4513 3.2481,8.91 0,0 1.6767,7.29 1.6767,7.29 2.1222,6.1317 3.8637,4.2606 3.9609,12.15 0,0 -22.68,0 -22.68,0 0,0 -13.77,-0.81 -13.77,-0.81 -11.4696,-0.0162 -13.6809,-0.1701 -25.0776,-2.106 -6.0264,-1.0287 -7.2981,1.4337 -12.9924,2.2275 -1.9359,0.2673 -4.0176,0.4212 -4.5927,-1.9278 -1.4823,-6.0912 5.4918,-12.7413 11.0727,-14.1183 0,0 8.91,0 8.91,0 8.4321,-1.3932 19.4886,-5.3136 25.92,-10.9512 3.7665,-3.3048 6.7473,-5.8644 6.3423,-11.1942 -0.7533,-9.7443 -2.025,-21.2463 -6.6663,-29.97 -4.05,-7.6302 -9.72,-9.8091 -10.7649,-13.8024 -1.4013,-5.3784 1.1178,-8.1405 2.0574,-12.1176 0,0 0,-12.96 0,-12.96 0,0 0.6075,-7.29 0.6075,-7.29 0,0 0,-4.86 0,-4.86 0.8343,-10.044 8.3754,-28.4877 -5.346,-33.21 0,0 3.7179,-18.63 3.7179,-18.63 0,0 -3.7179,-8.1 -3.7179,-8.1 0,0 1.62,0 1.62,0 0,0 -3.4911,-12.96 -3.4911,-12.96 -1.215,-2.3085 -4.7142,-5.913 -6.561,-8.1 0,0 -13.2759,-16.2 -13.2759,-16.2 -3.1104,-3.888 -12.1743,-13.5837 -12.9357,-17.82 -1.5147,-8.3511 4.4631,-11.5182 10.3437,-16.0056 8.1891,-6.2613 22.1454,-13.7862 28.6902,-20.5821 0,0 15.3252,-17.6823 15.3252,-17.6823 1.5795,-2.025 5.4513,-7.776 7.2738,-8.8938 5.8239,-3.564 11.4939,1.0449 13.5108,1.1421 1.296,0.0648 4.7061,-1.4985 6.48,-1.9683 -0.4455,-1.7091 -1.2798,-3.9771 -1.3527,-5.67 -0.1215,-2.8431 1.4256,-4.3821 -0.6561,-7.2009 -2.1951,-2.9727 -6.0831,-3.7503 -9.3312,-4.9977 -2.4057,-0.9315 -5.832,-2.9646 -8.1,-3.2562 -2.8917,-0.3645 -12.7656,2.2113 -16.2,2.9646 -2.6568,0.5832 -5.8158,0.9072 -8.0919,2.43 -2.6892,1.8144 -6.7554,7.1199 -8.2458,10.0602 -1.4499,2.8674 -1.2879,5.2569 -3.9123,7.29 0,0 0,-13.77 0,-13.77 0,0 -10.53,5.67 -10.53,5.67 0.7938,-6.6663 7.2657,-8.5617 12.0447,-12.7575 4.2201,-3.7017 2.6487,-6.399 10.6353,-13.8996 0,0 15.714,-11.8341 15.714,-11.8341 1.6767,-2.0898 1.0125,-3.8961 1.5471,-5.9859 0.6561,-2.592 2.349,-3.3858 2.2275,-5.7753 -0.1458,-2.754 -2.3004,-3.3129 -2.4786,-10.4976 0,0 6.48,-0.7371 6.48,-0.7371 3.0051,-0.2106 9.882,0.3078 11.0727,-3.483 0.8829,-2.8188 -4.4874,-6.6015 -2.0088,-9.8901 2.0412,-2.7135 5.7348,1.2231 8.3106,-3.0213 3.6288,-5.9859 5.2974,-22.7934 17.4555,-28.6011 2.349,-1.1178 4.7385,-1.6605 7.29,-2.0574 z m 40.5,22.68 c -6.6177,-3.8394 -18.4842,-0.2835 -21.87,6.48 6.8445,-0.3321 15.5844,-3.7098 21.87,-6.48 z m 5.67,25.11 c -4.3254,-1.053 -8.6589,-1.2231 -12.96,0 0,0 1.62,4.05 1.62,4.05 0,0 11.34,-2.43 11.34,-2.43 0,0 0,-1.62 0,-1.62 z m 1.62,38.88 c -0.4212,-5.2083 -2.3814,-7.2333 -7.29,-8.91 0.324,5.7672 1.3851,7.9137 7.29,8.91 z m -17.82,-1.62 c 0,0 -4.05,0 -4.05,0 0,0 4.05,3.24 4.05,3.24 0,0 0,-3.24 0,-3.24 z m 2.43,106.11 c 0,-2.4624 0.2592,-9.3231 -0.4779,-11.2671 -0.6804,-1.7739 -2.916,-3.9123 -4.0986,-5.7672 -1.5552,-2.4219 -3.078,-6.1965 -6.7635,-4.7304 -5.0625,2.0007 -10.8621,13.5513 -13.0734,18.5247 -0.6561,1.4823 -2.2761,4.9329 -2.1303,6.4476 0.3159,3.2643 4.7223,4.4388 5.5647,8.1324 0.6642,2.916 -4.6494,15.8679 4.7952,18.9135 1.3041,0.4212 2.673,0.4779 4.0338,0.5103 1.6119,0.0486 4.1796,0.081 5.67,-0.4698 2.3328,-0.8586 4.5927,-3.3048 6.48,-4.9572 6.9255,-6.0588 8.8938,-7.2657 12.9924,-15.6168 2.1384,-4.3578 7.29,-7.8408 4.2201,-11.8341 -0.9963,-1.2879 -2.6487,-2.0736 -4.2525,-2.1627 -2.3409,-0.1296 -10.1493,3.3048 -12.96,4.2768 z m -84.24,-20.25 c -4.86,1.6119 -8.5131,5.8482 -12.0771,4.9248 -2.2113,-0.5751 -3.5397,-2.9565 -5.7753,-3.5883 -3.0132,-0.8505 -5.8806,1.5228 -4.7223,5.1435 0,0 7.7436,15.39 7.7436,15.39 2.8431,6.318 2.7459,9.2259 4.3011,15.39 2.673,-0.4455 6.6663,-1.2312 6.1641,-4.8762 -0.2592,-1.8063 -1.9764,-3.1104 -1.2069,-5.427 0.5265,-1.5633 2.5758,-2.8269 3.5235,-6.7068 0,0 2.0493,-20.25 2.0493,-20.25 z"
     style="fill:#000000;stroke:none" />
</svg>
